<?xml version="1.0"?>
<VTKFile type="PolyData" version="0.1" byte_order="LittleEndian">
  <PolyData>
    <Piece NumberOfPoints="     19" NumberOfVerts="  0" NumberOfLines="     18"
           NumberOfStrips="  0" NumberOfPolys="      0">
      <Points>
        <DataArray type="Float32" NumberOfComponents="3" format="ascii">
                      -5.18676                      -0.06528                      88.51463
                      -5.36592                      -0.12057                      87.16083
                      -5.74651                      -0.13645                      84.45214
                      -6.13731                      -0.10743                      81.74284
                      -6.63135                      -0.04422                      78.35568
                      -7.16971                      -0.11111                      74.29014
                      -7.68178                      -0.30759                      70.22677
                      -8.19381                      -0.50625                      66.16348
                      -8.70309                      -0.70890                      62.10002
                      -9.21022                      -0.91364                      58.03636
                      -9.71632                      -1.11685                      53.97251
                     -10.22050                      -1.32005                      49.90842
                     -10.72331                      -1.52330                      45.84416
                     -11.22544                      -1.72658                      41.77983
                     -11.72525                      -1.92981                      37.71522
                     -12.13996                      -2.09916                      34.32782
                     -12.47083                      -2.24251                      31.61820
                     -12.80161                      -2.44082                      28.91092
                     -12.96744                      -2.49833                      27.55564
        </DataArray>
      </Points>
      <PointData>
        <DataArray type="Float32" Name="TranslationalVelocity" NumberOfComponents="3" format="ascii">
                      -0.01286                       0.12768                      -0.00660
                      -0.01297                       0.24367                      -0.01132
                      -0.01251                       0.47581                      -0.01275
                      -0.01173                       0.70793                      -0.01039
                      -0.01060                       0.99795                      -0.00516
                      -0.01039                       1.34529                      -0.01095
                      -0.01125                       1.69186                      -0.02765
                      -0.01224                       2.03804                      -0.04449
                      -0.01341                       2.38386                      -0.06163
                      -0.01475                       2.72937                      -0.07891
                      -0.01624                       3.07463                      -0.09601
                      -0.01790                       3.41968                      -0.11308
                      -0.01974                       3.76457                      -0.13011
                      -0.02176                       4.10935                      -0.14712
                      -0.02394                       4.45405                      -0.16410
                      -0.02589                       4.74124                      -0.17822
                      -0.02759                       4.97092                      -0.19017
                      -0.02976                       5.20037                      -0.20671
                      -0.03056                       5.31521                      -0.21149
        </DataArray>
        <DataArray type="Float32" Name="RotationalVelocity" NumberOfComponents="3" format="ascii">
                       0.08471                      -0.00022                      -0.00742
                       0.08469                      -0.00022                      -0.00742
                       0.08465                      -0.00021                      -0.00741
                       0.08460                      -0.00020                      -0.00741
                       0.08453                      -0.00019                      -0.00740
                       0.08443                      -0.00016                      -0.00739
                       0.08434                      -0.00013                      -0.00738
                       0.08425                      -0.00010                      -0.00737
                       0.08417                      -0.00006                      -0.00737
                       0.08410                      -0.00002                      -0.00736
                       0.08405                       0.00002                      -0.00736
                       0.08400                       0.00006                      -0.00736
                       0.08396                       0.00010                      -0.00736
                       0.08393                       0.00015                      -0.00737
                       0.08391                       0.00019                      -0.00737
                       0.08389                       0.00022                      -0.00737
                       0.08388                       0.00024                      -0.00737
                       0.08387                       0.00026                      -0.00738
                       0.08387                       0.00027                      -0.00738
        </DataArray>
        <DataArray type="Float32" Name="TranslationalAcceleration" NumberOfComponents="3" format="ascii">
                       0.01188                       0.00647                       0.01204
                       0.00401                       0.00720                       0.01326
                       0.01007                       0.02010                       0.03802
                       0.01406                       0.03149                       0.06093
                       0.01716                       0.04457                       0.08766
                       0.01927                       0.06036                       0.11704
                       0.02083                       0.07675                       0.14471
                       0.02271                       0.09323                       0.17213
                       0.02533                       0.11006                       0.19978
                       0.02880                       0.12727                       0.22782
                       0.03296                       0.14480                       0.25617
                       0.03752                       0.16255                       0.28465
                       0.04209                       0.18037                       0.31302
                       0.04625                       0.19812                       0.34111
                       0.04966                       0.21574                       0.36889
                       0.05175                       0.23032                       0.39195
                       0.05291                       0.24205                       0.41047
                       0.05367                       0.25429                       0.42909
                       0.05394                       0.26021                       0.43878
        </DataArray>
        <DataArray type="Float32" Name="OrientationX" NumberOfComponents="3" format="ascii">
                       0.96395                       0.22815                      -0.13692
                       0.96396                       0.22815                      -0.13688
                       0.96397                       0.22816                      -0.13675
                       0.96400                       0.22817                      -0.13656
                       0.96404                       0.22819                      -0.13625
                       0.97100                       0.19708                      -0.13536
                       0.97543                       0.17455                      -0.13443
                       0.97889                       0.15482                      -0.13342
                       0.98213                       0.13391                      -0.13227
                       0.98500                       0.11234                      -0.13099
                       0.98729                       0.09192                      -0.12963
                       0.98916                       0.07164                      -0.12818
                       0.99051                       0.05326                      -0.12672
                       0.99133                       0.03934                      -0.12539
                       0.99194                       0.02563                      -0.12408
                       0.99230                       0.01417                      -0.12305
                       0.99248                       0.00563                      -0.12231
                       0.99255                       0.00108                      -0.12182
                       0.99257                       0.00110                      -0.12171
        </DataArray>
        <DataArray type="Float32" Name="OrientationY" NumberOfComponents="3" format="ascii">
                       0.23187                      -0.97268                       0.01165
                       0.23187                      -0.97268                       0.01165
                       0.23187                      -0.97268                       0.01166
                       0.23188                      -0.97268                       0.01166
                       0.23189                      -0.97267                       0.01167
                       0.20103                      -0.97945                       0.01602
                       0.17867                      -0.98372                       0.01912
                       0.15907                      -0.98703                       0.02181
                       0.13831                      -0.99008                       0.02463
                       0.11689                      -0.99276                       0.02750
                       0.09659                      -0.99487                       0.03018
                       0.07643                      -0.99654                       0.03280
                       0.05814                      -0.99769                       0.03515
                       0.04428                      -0.99834                       0.03691
                       0.03064                      -0.99878                       0.03862
                       0.01923                      -0.99901                       0.04003
                       0.01073                      -0.99910                       0.04108
                       0.00620                      -0.99911                       0.04164
                       0.00622                      -0.99911                       0.04164
        </DataArray>
        <DataArray type="Float32" Name="OrientationZ" NumberOfComponents="3" format="ascii">
                      -0.13052                      -0.04298                      -0.99051
                      -0.13048                      -0.04297                      -0.99052
                      -0.13035                      -0.04295                      -0.99054
                      -0.13016                      -0.04291                      -0.99056
                      -0.12986                      -0.04285                      -0.99061
                      -0.12942                      -0.04276                      -0.99067
                      -0.12890                      -0.04267                      -0.99074
                      -0.12831                      -0.04258                      -0.99082
                      -0.12766                      -0.04248                      -0.99091
                      -0.12695                      -0.04239                      -0.99100
                      -0.12619                      -0.04231                      -0.99110
                      -0.12538                      -0.04224                      -0.99121
                      -0.12455                      -0.04219                      -0.99132
                      -0.12373                      -0.04214                      -0.99142
                      -0.12294                      -0.04211                      -0.99152
                      -0.12236                      -0.04209                      -0.99159
                      -0.12196                      -0.04209                      -0.99164
                      -0.12166                      -0.04209                      -0.99168
                      -0.12156                      -0.04209                      -0.99169
        </DataArray>
        <DataArray type="Float32" Name="Force" NumberOfComponents="3" format="ascii">
                      57.68240                      -1.46251                      -7.53758
                      50.83995                      -2.45135                      -6.59083
                      56.69298                      -4.58509                      -7.26164
                      43.49134                      -4.86367                      -5.50386
                     272.57109                      94.37633                     -39.82753
                     253.40332                      74.22818                     -36.32502
                     251.93118                      67.51824                     -35.70683
                     217.27258                      51.36349                     -30.36533
                     189.98695                      37.16876                     -26.08881
                     181.91086                      31.49561                     -24.66951
                     164.39669                      21.43135                     -21.86056
                     155.61238                      17.01801                     -20.42220
                     130.74874                      10.33913                     -16.87627
                     121.53962                       7.87969                     -15.50965
                     111.89378                       5.57184                     -14.11597
                     103.76279                       3.94044                     -12.97480
                      94.30926                       2.79749                     -11.72070
                      64.36689                       1.55035                      -7.96412
                      64.34328                       1.52551                      -7.95311
        </DataArray>
        <DataArray type="Float32" Name="Moment" NumberOfComponents="3" format="ascii">
                       0.00000                       0.00000                       0.00000
                       0.00000                       0.00000                       0.00000
                       0.00000                       0.00000                       0.00000
                       0.00000                       0.00000                       0.00000
                      29.98559                       9.92455                     228.73245
                      30.60976                      10.16604                     234.30738
                      28.02264                       9.34460                     215.38481
                      25.75061                       8.62656                     198.84493
                      22.66636                       7.63231                     175.93734
                      19.80026                       6.70475                     154.56540
                      15.69516                       5.34700                     123.27345
                      13.52967                       4.63902                     106.95865
                      11.39829                       3.93436                      90.71848
                       9.55166                       3.31907                      76.53678
                       7.87500                       2.75397                      63.51021
                       6.61161                       2.32326                      53.58031
                       5.35584                       1.88810                      43.54580
                       2.45834                       0.86879                      20.03773
                       2.44189                       0.86374                      19.92140
        </DataArray>
      </PointData>
      <Lines>
        <DataArray type="Int32" Name="connectivity" format="ascii">
      0      1
      1      2
      2      3
      3      4
      4      5
      5      6
      6      7
      7      8
      8      9
      9     10
     10     11
     11     12
     12     13
     13     14
     14     15
     15     16
     16     17
     17     18
        </DataArray>
        <DataArray type="Int32" Name="offsets" format="ascii">
      2
      4
      6
      8
     10
     12
     14
     16
     18
     20
     22
     24
     26
     28
     30
     32
     34
     36
        </DataArray>
      </Lines>
    </Piece>
  </PolyData>
</VTKFile>
