<?xml version="1.0"?>
<VTKFile type="PolyData" version="0.1" byte_order="LittleEndian">
  <PolyData>
    <Piece NumberOfPoints="     19" NumberOfVerts="  0" NumberOfLines="     18"
           NumberOfStrips="  0" NumberOfPolys="      0">
      <Points>
        <DataArray type="Float32" NumberOfComponents="3" format="ascii">
                      -4.91460                      -0.08500                      91.49754
                      -4.85561                      -0.16518                      92.86060
                      -4.76013                      -0.42009                      95.58227
                      -4.67495                      -0.71985                      98.30185
                      -4.57400                      -1.12153                     101.70013
                      -4.39764                      -1.46122                     105.78357
                      -4.19433                      -1.67164                     109.87310
                      -3.99051                      -1.88002                     113.96270
                      -3.78324                      -2.08457                     118.05235
                      -3.57288                      -2.28719                     122.14195
                      -3.36034                      -2.49150                     126.23134
                      -3.14449                      -2.69596                     130.32054
                      -2.92567                      -2.90053                     134.40957
                      -2.70440                      -3.10519                     138.49847
                      -2.47887                      -3.31002                     142.58713
                      -2.28757                      -3.48080                     145.99422
                      -2.13266                      -3.60958                     148.72018
                      -1.97669                      -3.68345                     151.44928
                      -1.89893                      -3.76200                     152.81139
        </DataArray>
      </Points>
      <PointData>
        <DataArray type="Float32" Name="TranslationalVelocity" NumberOfComponents="3" format="ascii">
                      -0.00856                      -0.28120                      -0.01634
                      -0.01004                      -0.53693                      -0.03132
                      -0.01456                      -1.04741                      -0.07898
                      -0.01979                      -1.55765                      -0.13507
                      -0.02672                      -2.19567                      -0.21033
                      -0.03260                      -2.96405                      -0.27410
                      -0.03620                      -3.73494                      -0.31370
                      -0.03958                      -4.50676                      -0.35297
                      -0.04269                      -5.27950                      -0.39155
                      -0.04554                      -6.05302                      -0.42980
                      -0.04820                      -6.82717                      -0.46840
                      -0.05063                      -7.60185                      -0.50705
                      -0.05285                      -8.37694                      -0.54574
                      -0.05488                      -9.15233                      -0.58447
                      -0.05674                      -9.92798                      -0.62324
                      -0.05818                     -10.57452                      -0.65558
                      -0.05914                     -11.09194                      -0.67997
                      -0.05917                     -11.61006                      -0.69400
                      -0.05986                     -11.86871                      -0.70888
        </DataArray>
        <DataArray type="Float32" Name="RotationalVelocity" NumberOfComponents="3" format="ascii">
                       0.18687                      -0.00012                      -0.01640
                       0.18690                      -0.00012                      -0.01640
                       0.18700                      -0.00012                      -0.01640
                       0.18712                      -0.00011                      -0.01641
                       0.18730                      -0.00009                      -0.01642
                       0.18752                      -0.00005                      -0.01643
                       0.18775                      -0.00001                      -0.01644
                       0.18796                       0.00004                      -0.01646
                       0.18814                       0.00009                      -0.01647
                       0.18831                       0.00015                      -0.01648
                       0.18844                       0.00020                      -0.01649
                       0.18855                       0.00026                      -0.01651
                       0.18864                       0.00031                      -0.01651
                       0.18871                       0.00035                      -0.01652
                       0.18877                       0.00039                      -0.01653
                       0.18881                       0.00042                      -0.01653
                       0.18883                       0.00043                      -0.01652
                       0.18885                       0.00044                      -0.01652
                       0.18885                       0.00044                      -0.01652
        </DataArray>
        <DataArray type="Float32" Name="TranslationalAcceleration" NumberOfComponents="3" format="ascii">
                      -0.00856                      -0.00364                      -0.05323
                      -0.00687                      -0.00500                      -0.06404
                      -0.01922                      -0.01136                      -0.18346
                      -0.03006                      -0.01531                      -0.29369
                      -0.04221                      -0.01868                      -0.42277
                      -0.05550                      -0.02709                      -0.56916
                      -0.06824                      -0.03978                      -0.71141
                      -0.08102                      -0.05239                      -0.85353
                      -0.09415                      -0.06509                      -0.99736
                      -0.10774                      -0.07789                      -1.14346
                      -0.12174                      -0.09064                      -1.29146
                      -0.13603                      -0.10337                      -1.44043
                      -0.15044                      -0.11603                      -1.58928
                      -0.16484                      -0.12855                      -1.73713
                      -0.17917                      -0.14092                      -1.88364
                      -0.19112                      -0.15110                      -2.00511
                      -0.20078                      -0.15954                      -2.10248
                      -0.21067                      -0.17002                      -2.20084
                      -0.21576                      -0.17381                      -2.25090
        </DataArray>
        <DataArray type="Float32" Name="OrientationX" NumberOfComponents="3" format="ascii">
                       0.97107                      -0.23221                      -0.05566
                       0.97107                      -0.23220                      -0.05571
                       0.97106                      -0.23220                      -0.05585
                       0.97105                      -0.23219                      -0.05607
                       0.97103                      -0.23218                      -0.05641
                       0.97800                      -0.20108                      -0.05549
                       0.98239                      -0.17853                      -0.05504
                       0.98579                      -0.15877                      -0.05482
                       0.98895                      -0.13784                      -0.05463
                       0.99172                      -0.11625                      -0.05450
                       0.99391                      -0.09581                      -0.05452
                       0.99565                      -0.07551                      -0.05463
                       0.99686                      -0.05711                      -0.05489
                       0.99753                      -0.04317                      -0.05542
                       0.99800                      -0.02945                      -0.05592
                       0.99825                      -0.01798                      -0.05625
                       0.99836                      -0.00944                      -0.05644
                       0.99838                      -0.00488                      -0.05673
                       0.99837                      -0.00489                      -0.05694
        </DataArray>
        <DataArray type="Float32" Name="OrientationY" NumberOfComponents="3" format="ascii">
                       0.23474                       0.97105                       0.04436
                       0.23474                       0.97105                       0.04436
                       0.23474                       0.97104                       0.04436
                       0.23475                       0.97104                       0.04436
                       0.23476                       0.97104                       0.04436
                       0.20369                       0.97795                       0.04615
                       0.18117                       0.98231                       0.04743
                       0.16145                       0.98569                       0.04854
                       0.14057                       0.98882                       0.04970
                       0.11903                       0.99159                       0.05089
                       0.09865                       0.99376                       0.05201
                       0.07841                       0.99550                       0.05313
                       0.06008                       0.99672                       0.05415
                       0.04622                       0.99742                       0.05493
                       0.03257                       0.99792                       0.05571
                       0.02115                       0.99819                       0.05636
                       0.01265                       0.99830                       0.05684
                       0.00812                       0.99834                       0.05709
                       0.00814                       0.99834                       0.05709
        </DataArray>
        <DataArray type="Float32" Name="OrientationZ" NumberOfComponents="3" format="ascii">
                       0.04375                      -0.05614                       0.99746
                       0.04379                      -0.05615                       0.99746
                       0.04394                      -0.05619                       0.99745
                       0.04414                      -0.05624                       0.99744
                       0.04448                      -0.05632                       0.99742
                       0.04498                      -0.05644                       0.99739
                       0.04560                      -0.05656                       0.99736
                       0.04633                      -0.05670                       0.99732
                       0.04717                      -0.05683                       0.99727
                       0.04813                      -0.05696                       0.99722
                       0.04920                      -0.05708                       0.99716
                       0.05037                      -0.05718                       0.99709
                       0.05162                      -0.05728                       0.99702
                       0.05291                      -0.05736                       0.99695
                       0.05416                      -0.05742                       0.99688
                       0.05514                      -0.05745                       0.99682
                       0.05581                      -0.05746                       0.99679
                       0.05635                      -0.05746                       0.99676
                       0.05656                      -0.05746                       0.99674
        </DataArray>
        <DataArray type="Float32" Name="Force" NumberOfComponents="3" format="ascii">
                      18.73618                       1.40207                      -0.74288
                      70.42602                       4.87440                      -2.81777
                      78.06307                      10.30432                      -2.85858
                      60.38880                      11.71941                      -2.01292
                     429.91100                    -150.12075                     -27.62032
                     406.84357                    -121.11873                     -25.16715
                     427.24734                    -116.75376                     -26.10719
                     377.59430                     -91.08682                     -22.66834
                     340.65539                     -67.95935                     -19.93867
                     346.73106                     -61.32457                     -20.18651
                     325.17064                     -43.36518                     -18.48523
                     326.84956                     -36.61092                     -18.57356
                     280.05070                     -22.02138                     -15.74013
                     275.85471                     -17.69873                     -15.63642
                     272.10955                     -13.86329                     -15.56642
                     266.76819                     -10.42947                     -15.34340
                     253.17726                      -7.68422                     -14.60925
                     181.06689                      -4.74632                     -10.50488
                     182.02909                     -32.48907                     -12.16042
        </DataArray>
        <DataArray type="Float32" Name="Moment" NumberOfComponents="3" format="ascii">
                       0.00000                       0.00000                       0.00000
                       0.00000                       0.00000                       0.00000
                       0.00000                       0.00000                       0.00000
                       0.00000                       0.00000                       0.00000
                     -13.44568                      16.97153                    -301.52528
                     -14.41441                      17.98929                    -319.59322
                     -13.98914                      17.22254                    -305.95476
                     -13.81407                      16.74055                    -297.37323
                     -13.13326                      15.63224                    -277.66520
                     -12.45990                      14.53622                    -258.17560
                     -10.64665                      12.15082                    -215.78856
                     -10.03852                      11.19037                    -198.71126
                      -9.20605                      10.01419                    -177.80586
                      -8.44718                       8.96571                    -159.17171
                      -7.67914                       7.96138                    -141.32586
                      -6.97691                       7.10621                    -126.13453
                      -6.00144                       6.03875                    -107.18083
                      -2.91866                       2.90858                     -51.62149
                      -1.31002                       1.30072                     -23.08482
        </DataArray>
      </PointData>
      <Lines>
        <DataArray type="Int32" Name="connectivity" format="ascii">
      0      1
      1      2
      2      3
      3      4
      4      5
      5      6
      6      7
      7      8
      8      9
      9     10
     10     11
     11     12
     12     13
     13     14
     14     15
     15     16
     16     17
     17     18
        </DataArray>
        <DataArray type="Int32" Name="offsets" format="ascii">
      2
      4
      6
      8
     10
     12
     14
     16
     18
     20
     22
     24
     26
     28
     30
     32
     34
     36
        </DataArray>
      </Lines>
    </Piece>
  </PolyData>
</VTKFile>
