<?xml version="1.0"?>
<VTKFile type="PolyData" version="0.1" byte_order="LittleEndian">
  <PolyData>
    <Piece NumberOfPoints="     19" NumberOfVerts="  0" NumberOfLines="     18"
           NumberOfStrips="  0" NumberOfPolys="      0">
      <Points>
        <DataArray type="Float32" NumberOfComponents="3" format="ascii">
                      -5.15080                      -1.01794                      88.91012
                      -5.29864                      -1.94224                      87.91426
                      -5.62184                      -3.71999                      85.86070
                      -5.95766                      -5.46357                      83.77726
                      -6.38427                      -7.62165                      81.15423
                      -6.83329                     -10.31566                      78.09475
                      -7.24818                     -13.10347                      75.11746
                      -7.66208                     -15.89064                      72.13937
                      -8.07205                     -18.67875                      69.16150
                      -8.47865                     -21.46665                      66.18285
                      -8.88311                     -24.25190                      63.20138
                      -9.28440                     -27.03595                      60.21829
                      -9.68305                     -29.81911                      57.23397
                     -10.07978                     -32.60160                      54.24875
                     -10.47302                     -35.38357                      51.26256
                     -10.79812                     -37.70158                      48.77340
                     -11.05644                     -39.56157                      46.78705
                     -11.31132                     -41.46198                      44.83734
                     -11.44142                     -42.38121                      43.83449
        </DataArray>
      </Points>
      <PointData>
        <DataArray type="Float32" Name="TranslationalVelocity" NumberOfComponents="3" format="ascii">
                      -0.01466                       0.14950                      -0.13747
                      -0.02553                       0.28555                      -0.26213
                      -0.04643                       0.56622                      -0.50183
                      -0.06692                       0.85093                      -0.73681
                      -0.09228                       1.20919                      -1.02749
                      -0.12397                       1.62613                      -1.39006
                      -0.15680                       2.03123                      -1.76492
                      -0.18968                       2.43608                      -2.13934
                      -0.22262                       2.84051                      -2.51356
                      -0.25562                       3.24473                      -2.88746
                      -0.28866                       3.64904                      -3.26075
                      -0.32175                       4.05334                      -3.63368
                      -0.35489                       4.45763                      -4.00633
                      -0.38807                       4.86189                      -4.37878
                      -0.42128                       5.26616                      -4.75106
                      -0.44896                       5.60305                      -5.06120
                      -0.47117                       5.87185                      -5.31002
                      -0.49384                       6.13566                      -5.56421
                      -0.50480                       6.27133                      -5.68714
        </DataArray>
        <DataArray type="Float32" Name="RotationalVelocity" NumberOfComponents="3" format="ascii">
                       0.13488                      -0.00005                      -0.01182
                       0.13486                      -0.00005                      -0.01181
                       0.13481                      -0.00005                      -0.01181
                       0.13474                      -0.00004                      -0.01180
                       0.13465                      -0.00003                      -0.01180
                       0.13453                      -0.00002                      -0.01180
                       0.13441                      -0.00001                      -0.01180
                       0.13429                       0.00000                      -0.01180
                       0.13419                       0.00002                      -0.01181
                       0.13410                       0.00003                      -0.01182
                       0.13402                       0.00004                      -0.01183
                       0.13396                       0.00005                      -0.01184
                       0.13391                       0.00006                      -0.01185
                       0.13387                       0.00007                      -0.01186
                       0.13384                       0.00007                      -0.01187
                       0.13381                       0.00007                      -0.01187
                       0.13380                       0.00007                      -0.01187
                       0.13379                       0.00006                      -0.01187
                       0.13379                       0.00006                      -0.01187
        </DataArray>
        <DataArray type="Float32" Name="TranslationalAcceleration" NumberOfComponents="3" format="ascii">
                       0.02079                       0.02339                       0.01763
                       0.00713                       0.02810                       0.01980
                       0.01798                       0.07948                       0.05765
                       0.02514                       0.12615                       0.09320
                       0.03055                       0.18025                       0.13506
                       0.03373                       0.24277                       0.18021
                       0.03530                       0.30468                       0.22188
                       0.03674                       0.36624                       0.26335
                       0.03876                       0.42831                       0.30525
                       0.04156                       0.49117                       0.34779
                       0.04505                       0.55466                       0.39090
                       0.04887                       0.61843                       0.43424
                       0.05263                       0.68204                       0.47746
                       0.05601                       0.74512                       0.52028
                       0.05887                       0.80755                       0.56260
                       0.06100                       0.85923                       0.59765
                       0.06276                       0.90073                       0.62564
                       0.06487                       0.94327                       0.65315
                       0.06626                       0.96443                       0.66780
        </DataArray>
        <DataArray type="Float32" Name="OrientationX" NumberOfComponents="3" format="ascii">
                       0.95216                       0.14019                      -0.27156
                       0.95216                       0.14024                      -0.27150
                       0.95219                       0.14041                      -0.27133
                       0.95223                       0.14066                      -0.27108
                       0.95228                       0.14105                      -0.27068
                       0.96099                       0.11850                      -0.24990
                       0.96670                       0.10239                      -0.23455
                       0.97128                       0.08841                      -0.22092
                       0.97568                       0.07362                      -0.20644
                       0.97976                       0.05838                      -0.19145
                       0.98320                       0.04402                      -0.17713
                       0.98620                       0.02980                      -0.16283
                       0.98858                       0.01698                      -0.14975
                       0.99017                       0.00745                      -0.13964
                       0.99155                      -0.00197                      -0.12970
                       0.99255                      -0.00993                      -0.12145
                       0.99320                      -0.01590                      -0.11535
                       0.99353                      -0.01901                      -0.11201
                       0.99354                      -0.01890                      -0.11193
        </DataArray>
        <DataArray type="Float32" Name="OrientationY" NumberOfComponents="3" format="ascii">
                       0.28610                      -0.72133                       0.63074
                       0.28608                      -0.72141                       0.63066
                       0.28605                      -0.72162                       0.63043
                       0.28602                      -0.72188                       0.63015
                       0.28598                      -0.72225                       0.62974
                       0.25541                      -0.72686                       0.63753
                       0.23321                      -0.72987                       0.64258
                       0.21374                      -0.73223                       0.64665
                       0.19310                      -0.73434                       0.65074
                       0.17179                      -0.73612                       0.65468
                       0.15159                      -0.73747                       0.65815
                       0.13151                      -0.73847                       0.66134
                       0.11328                      -0.73910                       0.66400
                       0.09946                      -0.73943                       0.66584
                       0.08585                      -0.73960                       0.66755
                       0.07445                      -0.73962                       0.66889
                       0.06596                      -0.73956                       0.66985
                       0.06143                      -0.73952                       0.67033
                       0.06145                      -0.73953                       0.67032
        </DataArray>
        <DataArray type="Float32" Name="OrientationZ" NumberOfComponents="3" format="ascii">
                      -0.10746                      -0.67826                      -0.72692
                      -0.10742                      -0.67816                      -0.72702
                      -0.10727                      -0.67790                      -0.72728
                      -0.10705                      -0.67758                      -0.72762
                      -0.10667                      -0.67710                      -0.72812
                      -0.10609                      -0.67649                      -0.72877
                      -0.10540                      -0.67588                      -0.72944
                      -0.10459                      -0.67530                      -0.73009
                      -0.10369                      -0.67478                      -0.73070
                      -0.10271                      -0.67432                      -0.73126
                      -0.10165                      -0.67394                      -0.73176
                      -0.10054                      -0.67363                      -0.73220
                      -0.09941                      -0.67338                      -0.73258
                      -0.09829                      -0.67319                      -0.73291
                      -0.09724                      -0.67304                      -0.73318
                      -0.09647                      -0.67295                      -0.73337
                      -0.09596                      -0.67290                      -0.73348
                      -0.09558                      -0.67287                      -0.73356
                      -0.09545                      -0.67286                      -0.73359
        </DataArray>
        <DataArray type="Float32" Name="Force" NumberOfComponents="3" format="ascii">
                      62.50393                      -6.30238                      -3.35918
                      58.13301                      -8.95511                      -0.23413
                      70.71847                     -13.25418                       1.93360
                      56.44167                     -11.80815                       2.71021
                     385.75980                      89.37680                    -139.93409
                     351.01123                      67.50866                    -114.12465
                     350.70205                      61.19092                    -107.81364
                     299.11945                      45.07467                     -84.95779
                     259.71726                      31.12100                     -65.94430
                     254.33034                      26.42605                     -60.43332
                     230.75566                      16.56011                     -47.56256
                     224.85566                      12.79680                     -42.87382
                     189.73383                       6.45020                     -31.81681
                     180.98725                       4.26137                     -28.29960
                     170.51147                       2.31149                     -24.82154
                     162.02889                       0.87268                     -22.17671
                     151.02537                      -0.04937                     -19.75830
                     106.34089                      -0.37289                     -13.54048
                     105.43630                      -0.37811                     -13.39816
        </DataArray>
        <DataArray type="Float32" Name="Moment" NumberOfComponents="3" format="ascii">
                       0.00000                       0.00000                       0.00000
                       0.00000                       0.00000                       0.00000
                       0.00000                       0.00000                       0.00000
                       0.00000                       0.00000                       0.00000
                      30.18574                     192.11000                     205.91568
                      30.81344                     197.27368                     211.46653
                      28.20180                     181.84331                     194.94367
                      26.04400                     169.30568                     181.52149
                      23.07408                     151.37228                     162.31265
                      20.40583                     135.21119                     145.00146
                      16.26091                     108.91044                     116.81174
                      14.29097                      96.80751                     103.84502
                      12.29368                      84.25438                      90.39196
                      10.50491                      72.83413                      78.15051
                       8.82225                      61.84081                      66.36326
                       7.56947                      53.49216                      57.40948
                       6.27411                      44.57816                      47.84567
                       2.96058                      21.12031                      22.66944
                       2.90873                      20.77922                      22.30369
        </DataArray>
      </PointData>
      <Lines>
        <DataArray type="Int32" Name="connectivity" format="ascii">
      0      1
      1      2
      2      3
      3      4
      4      5
      5      6
      6      7
      7      8
      8      9
      9     10
     10     11
     11     12
     12     13
     13     14
     14     15
     15     16
     16     17
     17     18
        </DataArray>
        <DataArray type="Int32" Name="offsets" format="ascii">
      2
      4
      6
      8
     10
     12
     14
     16
     18
     20
     22
     24
     26
     28
     30
     32
     34
     36
        </DataArray>
      </Lines>
    </Piece>
  </PolyData>
</VTKFile>
