<?xml version="1.0"?>
<VTKFile type="PolyData" version="0.1" byte_order="LittleEndian">
  <PolyData>
    <Piece NumberOfPoints="     19" NumberOfVerts="  0" NumberOfLines="     18"
           NumberOfStrips="  0" NumberOfPolys="      0">
      <Points>
        <DataArray type="Float32" NumberOfComponents="3" format="ascii">
                      -4.97113                      -1.09725                      91.02281
                      -4.95045                      -2.09920                      91.95207
                      -4.93726                      -4.16736                      93.74208
                      -4.93710                      -6.26653                      95.49892
                      -4.94413                      -8.90990                      97.67405
                      -4.88913                     -11.98843                     100.38286
                      -4.79970                     -14.98198                     103.18233
                      -4.70978                     -17.97641                     105.98091
                      -4.61646                     -20.97042                     108.77995
                      -4.52030                     -23.96503                     111.57835
                      -4.42258                     -26.96238                     114.37383
                      -4.32224                     -29.96115                     117.16776
                      -4.21982                     -32.96099                     119.96052
                      -4.11601                     -35.96161                     122.75243
                      -4.00920                     -38.96294                     125.54352
                      -3.91796                     -41.46454                     127.86891
                      -3.84338                     -43.46073                     129.73467
                      -3.76522                     -45.42005                     131.64059
                      -3.72911                     -46.42794                     132.56279
        </DataArray>
      </Points>
      <PointData>
        <DataArray type="Float32" Name="TranslationalVelocity" NumberOfComponents="3" format="ascii">
                      -0.00032                      -0.07810                      -0.08326
                      -0.00691                      -0.14928                      -0.15986
                      -0.02051                      -0.28626                      -0.31801
                      -0.03431                      -0.42066                      -0.47861
                      -0.05165                      -0.58711                      -0.68095
                      -0.07174                      -0.79496                      -0.91680
                      -0.09113                      -1.01017                      -1.14635
                      -0.11038                      -1.22549                      -1.37614
                      -0.12948                      -1.44104                      -1.60609
                      -0.14840                      -1.65670                      -1.83624
                      -0.16717                      -1.87227                      -2.06674
                      -0.18575                      -2.08785                      -2.29745
                      -0.20418                      -2.30343                      -2.52834
                      -0.22244                      -2.51901                      -2.75935
                      -0.24056                      -2.73459                      -2.99047
                      -0.25558                      -2.91424                      -3.18314
                      -0.26753                      -3.05841                      -3.33691
                      -0.27920                      -3.20570                      -3.48786
                      -0.28522                      -3.27697                      -3.56551
        </DataArray>
        <DataArray type="Float32" Name="RotationalVelocity" NumberOfComponents="3" format="ascii">
                       0.07644                       0.00012                      -0.00669
                       0.07645                       0.00012                      -0.00669
                       0.07648                       0.00012                      -0.00668
                       0.07651                       0.00013                      -0.00668
                       0.07656                       0.00014                      -0.00667
                       0.07662                       0.00016                      -0.00665
                       0.07669                       0.00018                      -0.00663
                       0.07675                       0.00021                      -0.00660
                       0.07680                       0.00024                      -0.00658
                       0.07685                       0.00027                      -0.00655
                       0.07689                       0.00030                      -0.00652
                       0.07692                       0.00033                      -0.00648
                       0.07695                       0.00036                      -0.00645
                       0.07697                       0.00039                      -0.00643
                       0.07699                       0.00041                      -0.00640
                       0.07700                       0.00042                      -0.00639
                       0.07700                       0.00043                      -0.00638
                       0.07701                       0.00043                      -0.00638
                       0.07701                       0.00043                      -0.00638
        </DataArray>
        <DataArray type="Float32" Name="TranslationalAcceleration" NumberOfComponents="3" format="ascii">
                       0.02585                       0.00168                      -0.00860
                       0.00717                       0.00303                      -0.01163
                       0.01717                       0.00923                      -0.03338
                       0.02247                       0.01563                      -0.05354
                       0.02477                       0.02362                      -0.07732
                       0.02380                       0.03197                      -0.10463
                       0.02126                       0.03930                      -0.13139
                       0.01871                       0.04678                      -0.15797
                       0.01684                       0.05454                      -0.18465
                       0.01570                       0.06264                      -0.21148
                       0.01485                       0.07111                      -0.23834
                       0.01352                       0.07991                      -0.26504
                       0.01078                       0.08899                      -0.29135
                       0.00575                       0.09834                      -0.31710
                      -0.00228                       0.10792                      -0.34220
                      -0.01157                       0.11612                      -0.36266
                      -0.02060                       0.12275                      -0.37891
                      -0.03085                       0.12917                      -0.39534
                      -0.03632                       0.13269                      -0.40353
        </DataArray>
        <DataArray type="Float32" Name="OrientationX" NumberOfComponents="3" format="ascii">
                       0.95635                      -0.18789                      -0.22379
                       0.95635                      -0.18785                      -0.22384
                       0.95635                      -0.18769                      -0.22399
                       0.95634                      -0.18747                      -0.22421
                       0.95633                      -0.18711                      -0.22457
                       0.96513                      -0.16565                      -0.20271
                       0.97085                      -0.14990                      -0.18703
                       0.97542                      -0.13598                      -0.17337
                       0.97983                      -0.12123                      -0.15888
                       0.98390                      -0.10600                      -0.14391
                       0.98731                      -0.09151                      -0.12977
                       0.99029                      -0.07709                      -0.11572
                       0.99262                      -0.06395                      -0.10303
                       0.99416                      -0.05383                      -0.09357
                       0.99548                      -0.04390                      -0.08420
                       0.99645                      -0.03566                      -0.07628
                       0.99708                      -0.02957                      -0.07034
                       0.99739                      -0.02626                      -0.06723
                       0.99739                      -0.02619                      -0.06733
        </DataArray>
        <DataArray type="Float32" Name="OrientationY" NumberOfComponents="3" format="ascii">
                       0.29178                       0.65564                       0.69642
                       0.29178                       0.65554                       0.69651
                       0.29179                       0.65529                       0.69675
                       0.29181                       0.65497                       0.69704
                       0.29184                       0.65451                       0.69745
                       0.26124                       0.65956                       0.70480
                       0.23904                       0.66260                       0.70980
                       0.21958                       0.66491                       0.71391
                       0.19894                       0.66714                       0.71787
                       0.17764                       0.66919                       0.72155
                       0.15743                       0.67085                       0.72469
                       0.13735                       0.67227                       0.72746
                       0.11912                       0.67332                       0.72969
                       0.10531                       0.67394                       0.73124
                       0.09171                       0.67444                       0.73261
                       0.08031                       0.67479                       0.73362
                       0.07182                       0.67501                       0.73431
                       0.06730                       0.67509                       0.73466
                       0.06733                       0.67508                       0.73466
        </DataArray>
        <DataArray type="Float32" Name="OrientationZ" NumberOfComponents="3" format="ascii">
                       0.01587                      -0.73132                       0.68185
                       0.01590                      -0.73142                       0.68174
                       0.01601                      -0.73169                       0.68145
                       0.01618                      -0.73203                       0.68108
                       0.01648                      -0.73253                       0.68053
                       0.01695                      -0.73317                       0.67983
                       0.01753                      -0.73382                       0.67912
                       0.01820                      -0.73444                       0.67843
                       0.01897                      -0.73500                       0.67780
                       0.01982                      -0.73550                       0.67724
                       0.02074                      -0.73592                       0.67675
                       0.02171                      -0.73628                       0.67632
                       0.02271                      -0.73658                       0.67597
                       0.02370                      -0.73683                       0.67567
                       0.02463                      -0.73702                       0.67542
                       0.02531                      -0.73714                       0.67526
                       0.02576                      -0.73722                       0.67516
                       0.02610                      -0.73726                       0.67510
                       0.02621                      -0.73728                       0.67508
        </DataArray>
        <DataArray type="Float32" Name="Force" NumberOfComponents="3" format="ascii">
                      69.72427                       1.48669                      -0.02862
                      70.14167                       2.11759                       0.63471
                      77.24658                       3.69403                       2.14495
                      59.19436                       3.86678                       2.73713
                     369.25794                    -100.99412                    -117.31795
                     343.04604                     -80.66708                     -95.14838
                     342.66704                     -74.38685                     -88.72898
                     299.28366                     -58.09530                     -70.44875
                     266.37229                     -44.02940                     -54.78957
                     258.53412                     -38.49936                     -48.97810
                     239.57489                     -28.45696                     -37.98027
                     231.02022                     -23.95381                     -33.22592
                     201.00574                     -16.73199                     -24.80296
                     190.78919                     -13.88954                     -21.68878
                     179.82941                     -11.27435                     -18.74264
                     169.86659                      -9.15713                     -16.27569
                     156.67262                      -7.43501                     -14.03177
                     108.80979                      -4.76804                      -9.37477
                     109.82062                      -4.79132                      -9.45803
        </DataArray>
        <DataArray type="Float32" Name="Moment" NumberOfComponents="3" format="ascii">
                       0.00000                       0.00000                       0.00000
                       0.00000                       0.00000                       0.00000
                       0.00000                       0.00000                       0.00000
                       0.00000                       0.00000                       0.00000
                      -5.09276                     224.49256                    -209.28574
                      -5.46651                     233.53064                    -217.69683
                      -5.31311                     218.84159                    -203.98706
                      -5.21229                     206.19671                    -192.18245
                      -4.91836                     186.33364                    -173.65117
                      -4.61911                     167.25686                    -155.85494
                      -3.95772                     136.82418                    -127.48119
                      -3.68494                     121.62582                    -113.30605
                      -3.35336                     105.79385                     -98.54410
                      -3.03019                      91.61569                     -85.32649
                      -2.68645                      78.17779                     -72.80226
                      -2.38524                      67.55036                     -62.89997
                      -2.01241                      56.00178                     -52.14337
                      -0.95909                      26.35023                     -24.53369
                      -0.96973                      26.52739                     -24.69827
        </DataArray>
      </PointData>
      <Lines>
        <DataArray type="Int32" Name="connectivity" format="ascii">
      0      1
      1      2
      2      3
      3      4
      4      5
      5      6
      6      7
      7      8
      8      9
      9     10
     10     11
     11     12
     12     13
     13     14
     14     15
     15     16
     16     17
     17     18
        </DataArray>
        <DataArray type="Int32" Name="offsets" format="ascii">
      2
      4
      6
      8
     10
     12
     14
     16
     18
     20
     22
     24
     26
     28
     30
     32
     34
     36
        </DataArray>
      </Lines>
    </Piece>
  </PolyData>
</VTKFile>
