<?xml version="1.0"?>
<VTKFile type="PolyData" version="0.1" byte_order="LittleEndian">
  <PolyData>
    <Piece NumberOfPoints="     19" NumberOfVerts="  0" NumberOfLines="     18"
           NumberOfStrips="  0" NumberOfPolys="      0">
      <Points>
        <DataArray type="Float32" NumberOfComponents="3" format="ascii">
                      -4.98379                       1.32459                      90.70386
                      -4.98799                       2.53062                      91.34676
                      -5.01118                       4.89809                      92.71655
                      -5.04121                       7.24511                      94.12527
                      -5.08258                      10.16767                      95.90817
                      -5.08986                      13.74537                      97.91463
                      -5.08221                      17.38639                      99.80097
                      -5.07574                      21.03040                     101.68140
                      -5.06780                      24.67815                     103.55444
                      -5.05867                      28.32852                     105.42224
                      -5.04897                      31.97952                     107.28857
                      -5.03768                      35.63164                     109.15256
                      -5.02508                      39.28462                     111.01471
                      -5.01155                      42.93824                     112.87550
                      -4.99514                      46.59237                     114.73519
                      -4.97903                      49.63787                     116.28417
                      -4.96539                      52.07808                     117.51586
                      -4.95558                      54.54378                     118.69838
                      -4.94755                      55.75756                     119.32631
        </DataArray>
      </Points>
      <PointData>
        <DataArray type="Float32" Name="TranslationalVelocity" NumberOfComponents="3" format="ascii">
                       0.01609                      -0.11014                       0.20642
                       0.03257                      -0.21031                       0.39443
                       0.06492                      -0.42358                       0.76357
                       0.09701                      -0.64290                       1.12963
                       0.13700                      -0.92055                       1.58563
                       0.18602                      -1.23375                       2.14414
                       0.23601                      -1.52857                       2.71286
                       0.28615                      -1.82261                       3.28237
                       0.33647                      -2.11568                       3.85277
                       0.38696                      -2.40807                       4.42385
                       0.43760                      -2.70035                       4.99526
                       0.48840                      -2.99237                       5.56703
                       0.53935                      -3.28420                       6.13907
                       0.59045                      -3.57587                       6.71132
                       0.64169                      -3.86744                       7.28373
                       0.68447                      -4.11036                       7.76085
                       0.71880                      -4.30354                       8.14318
                       0.75351                      -4.48898                       8.52954
                       0.77062                      -4.58749                       8.71974
        </DataArray>
        <DataArray type="Float32" Name="RotationalVelocity" NumberOfComponents="3" format="ascii">
                       0.15588                      -0.00003                      -0.01368
                       0.15589                      -0.00003                      -0.01368
                       0.15593                      -0.00003                      -0.01368
                       0.15598                      -0.00003                      -0.01369
                       0.15605                      -0.00002                      -0.01370
                       0.15614                      -0.00001                      -0.01372
                       0.15623                       0.00000                      -0.01374
                       0.15631                       0.00001                      -0.01377
                       0.15639                       0.00002                      -0.01380
                       0.15645                       0.00004                      -0.01383
                       0.15651                       0.00005                      -0.01386
                       0.15655                       0.00006                      -0.01389
                       0.15659                       0.00007                      -0.01393
                       0.15662                       0.00008                      -0.01396
                       0.15664                       0.00009                      -0.01399
                       0.15665                       0.00009                      -0.01401
                       0.15666                       0.00010                      -0.01402
                       0.15667                       0.00010                      -0.01403
                       0.15667                       0.00010                      -0.01403
        </DataArray>
        <DataArray type="Float32" Name="TranslationalAcceleration" NumberOfComponents="3" format="ascii">
                      -0.01890                      -0.03537                      -0.01289
                      -0.00676                      -0.04280                      -0.01433
                      -0.01734                      -0.12182                      -0.04274
                      -0.02462                      -0.19428                      -0.07002
                      -0.03059                      -0.27882                      -0.10250
                      -0.03453                      -0.37587                      -0.13603
                      -0.03682                      -0.47130                      -0.16537
                      -0.03902                      -0.56656                      -0.19452
                      -0.04178                      -0.66290                      -0.22392
                      -0.04533                      -0.76071                      -0.25374
                      -0.04956                      -0.85970                      -0.28400
                      -0.05420                      -0.95928                      -0.31443
                      -0.05890                      -1.05874                      -0.34479
                      -0.06335                      -1.15750                      -0.37487
                      -0.06748                      -1.25535                      -0.40462
                      -0.07079                      -1.33644                      -0.42927
                      -0.07356                      -1.40151                      -0.44884
                      -0.07664                      -1.46775                      -0.46734
                      -0.07857                      -1.50107                      -0.47776
        </DataArray>
        <DataArray type="Float32" Name="OrientationX" NumberOfComponents="3" format="ascii">
                       0.98803                      -0.06989                       0.13753
                       0.98803                      -0.06989                       0.13753
                       0.98803                      -0.06990                       0.13753
                       0.98803                      -0.06990                       0.13753
                       0.98803                      -0.06992                       0.13753
                       0.99244                      -0.05526                       0.10956
                       0.99500                      -0.04477                       0.08927
                       0.99680                      -0.03573                       0.07145
                       0.99827                      -0.02627                       0.05255
                       0.99932                      -0.01666                       0.03304
                       0.99987                      -0.00772                       0.01450
                       0.99999                       0.00101                      -0.00393
                       0.99975                       0.00875                      -0.02069
                       0.99934                       0.01433                      -0.03349
                       0.99874                       0.01979                      -0.04609
                       0.99810                       0.02437                      -0.05660
                       0.99754                       0.02778                      -0.06440
                       0.99721                       0.02945                      -0.06862
                       0.99721                       0.02926                      -0.06868
        </DataArray>
        <DataArray type="Float32" Name="OrientationY" NumberOfComponents="3" format="ascii">
                       0.15424                       0.46307                      -0.87280
                       0.15424                       0.46291                      -0.87288
                       0.15425                       0.46250                      -0.87310
                       0.15425                       0.46198                      -0.87337
                       0.15426                       0.46124                      -0.87376
                       0.12268                       0.46229                      -0.87820
                       0.09985                       0.46251                      -0.88098
                       0.07987                       0.46244                      -0.88305
                       0.05874                       0.46231                      -0.88477
                       0.03699                       0.46209                      -0.88606
                       0.01643                       0.46177                      -0.88685
                      -0.00395                       0.46136                      -0.88720
                      -0.02239                       0.46089                      -0.88718
                      -0.03633                       0.46042                      -0.88696
                      -0.05003                       0.45995                      -0.88654
                      -0.06147                       0.45954                      -0.88603
                      -0.06996                       0.45921                      -0.88557
                      -0.07448                       0.45901                      -0.88530
                      -0.07444                       0.45899                      -0.88532
        </DataArray>
        <DataArray type="Float32" Name="OrientationZ" NumberOfComponents="3" format="ascii">
                      -0.00269                       0.88356                       0.46830
                      -0.00266                       0.88365                       0.46815
                      -0.00258                       0.88386                       0.46774
                      -0.00248                       0.88413                       0.46723
                      -0.00234                       0.88452                       0.46650
                      -0.00212                       0.88500                       0.46558
                      -0.00184                       0.88548                       0.46467
                      -0.00149                       0.88593                       0.46381
                      -0.00105                       0.88633                       0.46305
                      -0.00051                       0.88668                       0.46239
                       0.00015                       0.88697                       0.46183
                       0.00091                       0.88721                       0.46136
                       0.00178                       0.88741                       0.46097
                       0.00271                       0.88758                       0.46064
                       0.00366                       0.88773                       0.46036
                       0.00442                       0.88782                       0.46016
                       0.00497                       0.88789                       0.46003
                       0.00543                       0.88794                       0.45992
                       0.00561                       0.88796                       0.45988
        </DataArray>
        <DataArray type="Float32" Name="Force" NumberOfComponents="3" format="ascii">
                      47.32758                       0.53522                      -0.73845
                      69.37843                       1.97930                      -3.34305
                      75.66210                       4.04418                      -7.22156
                      57.56422                       4.51296                      -8.22119
                     377.46371                     -45.38076                      87.39011
                     359.75724                     -34.76199                      67.04634
                     368.12687                     -31.79554                      61.20746
                     325.71233                     -23.59540                      45.30324
                     291.23316                     -15.77868                      30.15804
                     290.82129                     -12.98208                      24.50971
                     269.84142                      -6.82944                      12.49283
                     267.68775                      -4.41316                       7.47650
                     231.34418                      -0.58842                      -0.06995
                     225.55514                       0.81109                      -3.14360
                     218.78988                       1.99096                      -5.77809
                     211.97210                       2.89545                      -7.77555
                     198.92194                       3.49615                      -9.00667
                     140.46909                       2.75135                      -7.03463
                     111.73479                       2.19090                      -5.64499
        </DataArray>
        <DataArray type="Float32" Name="Moment" NumberOfComponents="3" format="ascii">
                       0.00000                       0.00000                       0.00000
                       0.00000                       0.00000                       0.00000
                       0.00000                       0.00000                       0.00000
                       0.00000                       0.00000                       0.00000
                       0.66621                    -269.47209                    -142.81154
                       0.59418                    -278.17697                    -147.41663
                       0.45051                    -259.75066                    -137.64267
                       0.30881                    -245.90507                    -130.29552
                       0.15346                    -224.16580                    -118.76549
                       0.00138                    -204.13816                    -108.14248
                      -0.13243                    -168.40037                     -89.19861
                      -0.25871                    -152.67743                     -80.85829
                      -0.36673                    -135.64476                     -71.82573
                      -0.45425                    -120.08956                     -63.57768
                      -0.51199                    -104.93467                     -55.54429
                      -0.53272                     -92.58062                     -48.99790
                      -0.49769                     -77.94761                     -41.24913
                      -0.25707                     -37.19016                     -19.67895
                      -0.20277                     -28.46206                     -15.06000
        </DataArray>
      </PointData>
      <Lines>
        <DataArray type="Int32" Name="connectivity" format="ascii">
      0      1
      1      2
      2      3
      3      4
      4      5
      5      6
      6      7
      7      8
      8      9
      9     10
     10     11
     11     12
     12     13
     13     14
     14     15
     15     16
     16     17
     17     18
        </DataArray>
        <DataArray type="Int32" Name="offsets" format="ascii">
      2
      4
      6
      8
     10
     12
     14
     16
     18
     20
     22
     24
     26
     28
     30
     32
     34
     36
        </DataArray>
      </Lines>
    </Piece>
  </PolyData>
</VTKFile>
