<?xml version="1.0"?>
<VTKFile type="PolyData" version="0.1" byte_order="LittleEndian">
  <PolyData>
    <Piece NumberOfPoints="     19" NumberOfVerts="  0" NumberOfLines="     18"
           NumberOfStrips="  0" NumberOfPolys="      0">
      <Points>
        <DataArray type="Float32" NumberOfComponents="3" format="ascii">
                      -4.92527                       0.07833                      91.49692
                      -4.86648                       0.14657                      92.86064
                      -4.77057                       0.18852                      95.59388
                      -4.68463                       0.18573                      98.32992
                      -4.58268                       0.15558                     101.75171
                      -4.40685                       0.26252                     105.84793
                      -4.20583                       0.49945                     109.93618
                      -4.00495                       0.73901                     114.02427
                      -3.80144                       0.98296                     118.11199
                      -3.59578                       1.22936                     122.19945
                      -3.38892                       1.47451                     126.28690
                      -3.17987                       1.71988                     130.37421
                      -2.96904                       1.96545                     134.46141
                      -2.75700                       2.21117                     138.54853
                      -2.54195                       2.45692                     142.63551
                      -2.36035                       2.66175                     146.04124
                      -2.21384                       2.83352                     148.76530
                      -2.06728                       3.06028                     151.48648
                      -1.99399                       3.13205                     152.84922
        </DataArray>
      </Points>
      <PointData>
        <DataArray type="Float32" Name="TranslationalVelocity" NumberOfComponents="3" format="ascii">
                       0.00549                      -0.18504                       0.01011
                       0.00633                      -0.35407                       0.01853
                       0.00702                      -0.69276                       0.02370
                       0.00725                      -1.03191                       0.02334
                       0.00732                      -1.45636                       0.01957
                       0.00907                      -1.96560                       0.03272
                       0.01239                      -2.47474                       0.06198
                       0.01595                      -2.98447                       0.09160
                       0.01979                      -3.49474                       0.12180
                       0.02391                      -4.00551                       0.15233
                       0.02828                      -4.51671                       0.18273
                       0.03291                      -5.02826                       0.21317
                       0.03781                      -5.54009                       0.24365
                       0.04295                      -6.05211                       0.27415
                       0.04831                      -6.56430                       0.30465
                       0.05292                      -6.99123                       0.33007
                       0.05678                      -7.33279                       0.35140
                       0.06128                      -7.67405                       0.37959
                       0.06309                      -7.84498                       0.38849
        </DataArray>
        <DataArray type="Float32" Name="RotationalVelocity" NumberOfComponents="3" format="ascii">
                       0.12346                       0.00008                      -0.01081
                       0.12348                       0.00008                      -0.01081
                       0.12355                       0.00009                      -0.01082
                       0.12363                       0.00010                      -0.01082
                       0.12375                       0.00013                      -0.01083
                       0.12390                       0.00016                      -0.01084
                       0.12404                       0.00021                      -0.01085
                       0.12418                       0.00026                      -0.01086
                       0.12431                       0.00032                      -0.01087
                       0.12442                       0.00038                      -0.01088
                       0.12451                       0.00044                      -0.01089
                       0.12458                       0.00051                      -0.01090
                       0.12464                       0.00057                      -0.01091
                       0.12469                       0.00063                      -0.01092
                       0.12473                       0.00068                      -0.01092
                       0.12476                       0.00071                      -0.01093
                       0.12477                       0.00073                      -0.01093
                       0.12478                       0.00074                      -0.01093
                       0.12478                       0.00074                      -0.01093
        </DataArray>
        <DataArray type="Float32" Name="TranslationalAcceleration" NumberOfComponents="3" format="ascii">
                       0.01889                      -0.00822                      -0.02073
                       0.00433                      -0.00903                      -0.02679
                       0.00986                      -0.02451                      -0.07727
                       0.01196                      -0.03771                      -0.12445
                       0.01141                      -0.05240                      -0.18020
                       0.00803                      -0.07074                      -0.24320
                       0.00353                      -0.09034                      -0.30405
                      -0.00090                      -0.10975                      -0.36487
                      -0.00459                      -0.12927                      -0.42643
                      -0.00727                      -0.14899                      -0.48895
                      -0.00898                      -0.16882                      -0.55229
                      -0.00996                      -0.18868                      -0.61606
                      -0.01049                      -0.20843                      -0.67983
                      -0.01081                      -0.22794                      -0.74324
                      -0.01099                      -0.24719                      -0.80617
                      -0.01085                      -0.26305                      -0.85840
                      -0.01034                      -0.27588                      -0.90026
                      -0.00912                      -0.28972                      -0.94235
                      -0.00815                      -0.29611                      -0.96389
        </DataArray>
        <DataArray type="Float32" Name="OrientationX" NumberOfComponents="3" format="ascii">
                       0.97327                      -0.22764                      -0.03055
                       0.97326                      -0.22764                      -0.03058
                       0.97326                      -0.22765                      -0.03069
                       0.97325                      -0.22766                      -0.03084
                       0.97324                      -0.22769                      -0.03109
                       0.97991                      -0.19660                      -0.03340
                       0.98410                      -0.17409                      -0.03524
                       0.98732                      -0.15438                      -0.03698
                       0.99029                      -0.13351                      -0.03885
                       0.99287                      -0.11200                      -0.04084
                       0.99487                      -0.09164                      -0.04282
                       0.99644                      -0.07144                      -0.04485
                       0.99749                      -0.05315                      -0.04682
                       0.99805                      -0.03932                      -0.04856
                       0.99841                      -0.02572                      -0.05025
                       0.99857                      -0.01433                      -0.05160
                       0.99860                      -0.00586                      -0.05256
                       0.99858                      -0.00136                      -0.05321
                       0.99857                      -0.00140                      -0.05337
        </DataArray>
        <DataArray type="Float32" Name="OrientationY" NumberOfComponents="3" format="ascii">
                       0.22551                       0.97233                      -0.06096
                       0.22551                       0.97233                      -0.06098
                       0.22551                       0.97233                      -0.06103
                       0.22551                       0.97232                      -0.06109
                       0.22552                       0.97232                      -0.06118
                       0.19438                       0.97907                      -0.06026
                       0.17182                       0.98333                      -0.05957
                       0.15206                       0.98661                      -0.05895
                       0.13114                       0.98965                      -0.05823
                       0.10958                       0.99232                      -0.05744
                       0.08916                       0.99441                      -0.05665
                       0.06890                       0.99606                      -0.05581
                       0.05055                       0.99721                      -0.05500
                       0.03667                       0.99785                      -0.05437
                       0.02301                       0.99829                      -0.05371
                       0.01159                       0.99852                      -0.05314
                       0.00309                       0.99861                      -0.05271
                      -0.00143                       0.99862                      -0.05248
                      -0.00140                       0.99862                      -0.05249
        </DataArray>
        <DataArray type="Float32" Name="OrientationZ" NumberOfComponents="3" format="ascii">
                       0.04358                       0.05245                       0.99767
                       0.04362                       0.05246                       0.99767
                       0.04373                       0.05248                       0.99766
                       0.04390                       0.05250                       0.99766
                       0.04416                       0.05253                       0.99764
                       0.04455                       0.05255                       0.99762
                       0.04503                       0.05257                       0.99760
                       0.04558                       0.05258                       0.99758
                       0.04623                       0.05257                       0.99755
                       0.04696                       0.05256                       0.99751
                       0.04777                       0.05254                       0.99748
                       0.04866                       0.05252                       0.99743
                       0.04961                       0.05250                       0.99739
                       0.05059                       0.05248                       0.99734
                       0.05155                       0.05247                       0.99729
                       0.05228                       0.05247                       0.99725
                       0.05280                       0.05247                       0.99723
                       0.05321                       0.05248                       0.99720
                       0.05337                       0.05249                       0.99719
        </DataArray>
        <DataArray type="Float32" Name="Force" NumberOfComponents="3" format="ascii">
                      69.60764                       1.44957                      -3.11688
                      70.05497                       2.92884                      -3.21677
                      77.29911                       6.44825                      -3.72734
                      59.40903                       7.40213                      -3.00302
                     385.40052                    -132.06595                     -10.11574
                     365.66586                    -105.87181                     -10.76379
                     372.34900                     -98.96284                     -11.60319
                     328.40122                     -77.01869                     -10.95694
                     294.93994                     -57.17027                     -10.66159
                     291.45641                     -49.95580                     -11.09286
                     271.18308                     -34.97468                     -11.14814
                     266.79906                     -29.02337                     -11.49006
                     231.29432                     -18.04768                     -10.55588
                     223.38947                     -14.12521                     -10.58833
                     214.42575                     -10.56977                     -10.52685
                     205.97964                      -7.82780                     -10.38728
                     192.54265                      -5.71280                      -9.89347
                     135.26616                      -3.29373                      -7.04425
                     137.29970                      -3.30140                      -7.17401
        </DataArray>
        <DataArray type="Float32" Name="Moment" NumberOfComponents="3" format="ascii">
                       0.00000                       0.00000                       0.00000
                       0.00000                       0.00000                       0.00000
                       0.00000                       0.00000                       0.00000
                       0.00000                       0.00000                       0.00000
                     -13.82697                     -16.42256                    -312.39062
                     -14.54472                     -17.12255                    -325.69470
                     -13.83424                     -16.11439                    -306.50522
                     -13.29778                     -15.30050                    -291.01039
                     -12.31054                     -13.96817                    -265.65500
                     -11.35691                     -12.68640                    -241.26209
                      -9.53030                     -10.46475                    -198.99791
                      -8.75592                      -9.43861                    -179.47073
                      -7.87857                      -8.33051                    -158.38767
                      -7.06289                      -7.32407                    -139.24030
                      -6.23898                      -6.34984                    -120.70866
                      -5.54553                      -5.56458                    -105.77430
                      -4.69523                      -4.66562                     -88.68248
                      -2.24863                      -2.21720                     -42.14223
                      -2.28090                      -2.24243                     -42.62111
        </DataArray>
      </PointData>
      <Lines>
        <DataArray type="Int32" Name="connectivity" format="ascii">
      0      1
      1      2
      2      3
      3      4
      4      5
      5      6
      6      7
      7      8
      8      9
      9     10
     10     11
     11     12
     12     13
     13     14
     14     15
     15     16
     16     17
     17     18
        </DataArray>
        <DataArray type="Int32" Name="offsets" format="ascii">
      2
      4
      6
      8
     10
     12
     14
     16
     18
     20
     22
     24
     26
     28
     30
     32
     34
     36
        </DataArray>
      </Lines>
    </Piece>
  </PolyData>
</VTKFile>
