<?xml version="1.0"?>
<VTKFile type="PolyData" version="0.1" byte_order="LittleEndian">
  <PolyData>
    <Piece NumberOfPoints="     19" NumberOfVerts="  0" NumberOfLines="     18"
           NumberOfStrips="  0" NumberOfPolys="      0">
      <Points>
        <DataArray type="Float32" NumberOfComponents="3" format="ascii">
                      -4.97255                       1.21301                      90.88256
                      -4.96252                       2.31678                      91.68843
                      -4.95790                       4.46852                      93.37713
                      -4.96047                       6.59454                      95.10161
                      -4.96776                       9.23778                      97.27757
                      -4.93330                      12.49754                      99.76718
                      -4.88326                      15.83648                     102.14703
                      -4.83464                      19.17902                     104.52175
                      -4.78488                      22.52612                     106.88996
                      -4.73435                      25.87636                     109.25358
                      -4.68379                      29.22730                     111.61605
                      -4.63226                      32.57955                     113.97654
                      -4.58009                      35.93282                     116.33546
                      -4.52775                      39.28683                     118.69325
                      -4.47329                      42.64142                     121.05012
                      -4.42610                      45.43734                     123.01356
                      -4.38792                      47.67887                     124.57748
                      -4.35353                      49.95259                     126.09639
                      -4.33361                      51.06534                     126.88948
        </DataArray>
      </Points>
      <PointData>
        <DataArray type="Float32" Name="TranslationalVelocity" NumberOfComponents="3" format="ascii">
                       0.02047                      -0.08056                       0.11107
                       0.02941                      -0.15379                       0.21126
                       0.04687                      -0.30715                       0.40663
                       0.06418                      -0.46378                       0.59973
                       0.08577                      -0.66149                       0.83994
                       0.11249                      -0.88820                       1.13635
                       0.14000                      -1.10524                       1.44020
                       0.16776                      -1.32197                       1.74461
                       0.19581                      -1.53826                       2.04966
                       0.22417                      -1.75429                       2.35518
                       0.25284                      -1.97032                       2.66094
                       0.28184                      -2.18627                       2.96695
                       0.31118                      -2.40217                       3.27315
                       0.34085                      -2.61801                       3.57950
                       0.37083                      -2.83382                       3.88596
                       0.39603                      -3.01365                       4.14140
                       0.41636                      -3.15690                       4.34622
                       0.43702                      -3.29602                       4.55399
                       0.44719                      -3.36869                       4.65569
        </DataArray>
        <DataArray type="Float32" Name="RotationalVelocity" NumberOfComponents="3" format="ascii">
                       0.09076                       0.00019                      -0.00796
                       0.09077                       0.00019                      -0.00796
                       0.09080                       0.00019                      -0.00797
                       0.09084                       0.00020                      -0.00798
                       0.09089                       0.00022                      -0.00800
                       0.09096                       0.00024                      -0.00803
                       0.09103                       0.00027                      -0.00807
                       0.09110                       0.00031                      -0.00812
                       0.09116                       0.00034                      -0.00817
                       0.09121                       0.00038                      -0.00823
                       0.09125                       0.00043                      -0.00829
                       0.09129                       0.00047                      -0.00836
                       0.09132                       0.00052                      -0.00843
                       0.09134                       0.00056                      -0.00849
                       0.09136                       0.00060                      -0.00855
                       0.09137                       0.00063                      -0.00860
                       0.09137                       0.00064                      -0.00862
                       0.09137                       0.00066                      -0.00864
                       0.09137                       0.00066                      -0.00865
        </DataArray>
        <DataArray type="Float32" Name="TranslationalAcceleration" NumberOfComponents="3" format="ascii">
                      -0.01700                      -0.01403                      -0.00390
                      -0.00544                      -0.01626                      -0.00381
                      -0.01357                      -0.04631                      -0.01141
                      -0.01871                      -0.07380                      -0.01891
                      -0.02235                      -0.10579                      -0.02794
                      -0.02413                      -0.14203                      -0.03701
                      -0.02478                      -0.17726                      -0.04471
                      -0.02556                      -0.21224                      -0.05261
                      -0.02704                      -0.24748                      -0.06087
                      -0.02936                      -0.28315                      -0.06956
                      -0.03236                      -0.31913                      -0.07864
                      -0.03566                      -0.35521                      -0.08803
                      -0.03878                      -0.39109                      -0.09761
                      -0.04128                      -0.42655                      -0.10729
                      -0.04284                      -0.46153                      -0.11703
                      -0.04334                      -0.49042                      -0.12524
                      -0.04329                      -0.51358                      -0.13182
                      -0.04298                      -0.53717                      -0.13806
                      -0.04286                      -0.54906                      -0.14160
        </DataArray>
        <DataArray type="Float32" Name="OrientationX" NumberOfComponents="3" format="ascii">
                       0.98696                      -0.10067                       0.12557
                       0.98696                      -0.10067                       0.12557
                       0.98696                      -0.10067                       0.12558
                       0.98696                      -0.10067                       0.12559
                       0.98696                      -0.10067                       0.12560
                       0.99158                      -0.08225                       0.09999
                       0.99429                      -0.06901                       0.08141
                       0.99622                      -0.05752                       0.06510
                       0.99782                      -0.04545                       0.04779
                       0.99900                      -0.03311                       0.02989
                       0.99968                      -0.02155                       0.01290
                       0.99994                      -0.01018                      -0.00402
                       0.99981                      -0.00001                      -0.01941
                       0.99949                       0.00749                      -0.03118
                       0.99897                       0.01483                      -0.04277
                       0.99840                       0.02098                      -0.05244
                       0.99789                       0.02556                      -0.05961
                       0.99759                       0.02788                      -0.06351
                       0.99759                       0.02774                      -0.06357
        </DataArray>
        <DataArray type="Float32" Name="OrientationY" NumberOfComponents="3" format="ascii">
                       0.16076                       0.57907                      -0.79927
                       0.16076                       0.57894                      -0.79936
                       0.16076                       0.57860                      -0.79961
                       0.16076                       0.57816                      -0.79993
                       0.16077                       0.57755                      -0.80037
                       0.12921                       0.57968                      -0.80454
                       0.10639                       0.58063                      -0.80718
                       0.08643                       0.58117                      -0.80918
                       0.06532                       0.58160                      -0.81085
                       0.04358                       0.58189                      -0.81210
                       0.02303                       0.58197                      -0.81289
                       0.00266                       0.58190                      -0.81326
                      -0.01578                       0.58167                      -0.81327
                      -0.02972                       0.58136                      -0.81310
                      -0.04342                       0.58101                      -0.81274
                      -0.05486                       0.58067                      -0.81229
                      -0.06337                       0.58039                      -0.81187
                      -0.06788                       0.58021                      -0.81163
                      -0.06785                       0.58019                      -0.81165
        </DataArray>
        <DataArray type="Float32" Name="OrientationZ" NumberOfComponents="3" format="ascii">
                       0.00775                       0.80903                       0.58771
                       0.00777                       0.80913                       0.58758
                       0.00784                       0.80938                       0.58724
                       0.00792                       0.80969                       0.58681
                       0.00804                       0.81013                       0.58620
                       0.00821                       0.81068                       0.58543
                       0.00843                       0.81123                       0.58466
                       0.00871                       0.81175                       0.58394
                       0.00906                       0.81220                       0.58330
                       0.00949                       0.81260                       0.58275
                       0.01001                       0.81293                       0.58228
                       0.01062                       0.81320                       0.58189
                       0.01130                       0.81342                       0.58156
                       0.01204                       0.81361                       0.58129
                       0.01280                       0.81376                       0.58106
                       0.01341                       0.81387                       0.58090
                       0.01385                       0.81394                       0.58079
                       0.01422                       0.81399                       0.58070
                       0.01437                       0.81401                       0.58067
        </DataArray>
        <DataArray type="Float32" Name="Force" NumberOfComponents="3" format="ascii">
                      69.34300                       0.26473                      -1.27863
                      69.46040                       0.89589                      -2.15343
                      75.91489                       2.35340                      -4.25750
                      57.76995                       2.83276                      -4.68562
                     342.68812                     -55.91429                      72.21385
                     325.82793                     -43.39221                      55.07707
                     324.46149                     -38.77101                      48.57863
                     288.33666                     -29.43435                      36.09434
                     258.91745                     -20.54888                      24.13694
                     250.24072                     -16.76548                      18.86545
                     232.95050                     -10.15355                       9.83243
                     224.02667                      -7.21519                       5.70234
                     195.83288                      -3.27060                       0.56613
                     185.25821                      -1.60282                      -1.75823
                     174.24366                      -0.17137                      -3.72430
                     164.62799                       0.87278                      -5.11824
                     151.95492                       1.50494                      -5.80394
                     105.54675                       1.33455                      -4.49761
                     106.58180                       1.35646                      -4.58141
        </DataArray>
        <DataArray type="Float32" Name="Moment" NumberOfComponents="3" format="ascii">
                       0.00000                       0.00000                       0.00000
                       0.00000                       0.00000                       0.00000
                       0.00000                       0.00000                       0.00000
                       0.00000                       0.00000                       0.00000
                      -2.57703                    -255.30870                    -185.45315
                      -2.73282                    -262.94780                    -190.99520
                      -2.62109                    -243.89908                    -177.15138
                      -2.54242                    -227.71559                    -165.38846
                      -2.38240                    -204.29276                    -148.36770
                      -2.23221                    -182.22321                    -132.33028
                      -1.92470                    -148.76663                    -108.02518
                      -1.80754                    -131.69173                     -95.61734
                      -1.66759                    -114.20135                     -82.90933
                      -1.53309                     -98.64684                     -71.60875
                      -1.38649                     -84.04275                     -61.00044
                      -1.25319                     -72.59743                     -52.68826
                      -1.07234                     -60.19385                     -43.68333
                      -0.51760                     -28.31767                     -20.54929
                      -0.52650                     -28.51304                     -20.69060
        </DataArray>
      </PointData>
      <Lines>
        <DataArray type="Int32" Name="connectivity" format="ascii">
      0      1
      1      2
      2      3
      3      4
      4      5
      5      6
      6      7
      7      8
      8      9
      9     10
     10     11
     11     12
     12     13
     13     14
     14     15
     15     16
     16     17
     17     18
        </DataArray>
        <DataArray type="Int32" Name="offsets" format="ascii">
      2
      4
      6
      8
     10
     12
     14
     16
     18
     20
     22
     24
     26
     28
     30
     32
     34
     36
        </DataArray>
      </Lines>
    </Piece>
  </PolyData>
</VTKFile>
