<?xml version="1.0"?>
<VTKFile type="PolyData" version="0.1" byte_order="LittleEndian">
  <PolyData>
    <Piece NumberOfPoints="     19" NumberOfVerts="  0" NumberOfLines="     18"
           NumberOfStrips="  0" NumberOfPolys="      0">
      <Points>
        <DataArray type="Float32" NumberOfComponents="3" format="ascii">
                      -4.93064                       0.63319                      91.35933
                      -4.88262                       1.20790                      92.59838
                      -4.80516                       2.27154                      95.11718
                      -4.73621                       3.29504                      97.65513
                      -4.65466                       4.55120                     100.83886
                      -4.50805                       6.19079                     104.59566
                      -4.34058                       7.95033                     108.29545
                      -4.17341                       9.71386                     111.99332
                      -4.00379                      11.48288                     115.68844
                      -3.83205                      13.25544                     119.38173
                      -3.65896                      15.02797                     123.07490
                      -3.48345                      16.80160                     126.76739
                      -3.30585                      18.57609                     130.45933
                      -3.12663                      20.35123                     134.15085
                      -2.94390                      22.12680                     137.84199
                      -2.78878                      23.60678                     140.91767
                      -2.66342                      24.79809                     143.37464
                      -2.53952                      26.03939                     145.80809
                      -2.47609                      26.62242                     147.04245
        </DataArray>
      </Points>
      <PointData>
        <DataArray type="Float32" Name="TranslationalVelocity" NumberOfComponents="3" format="ascii">
                       0.00234                      -0.23665                       0.10946
                       0.01093                      -0.45254                       0.20926
                       0.02680                      -0.89127                       0.39403
                       0.04208                      -1.33345                       0.57192
                       0.06087                      -1.88850                       0.79039
                       0.08552                      -2.54486                       1.07578
                       0.11213                      -3.19232                       1.38237
                       0.13893                      -3.84012                       1.68998
                       0.16598                      -4.48809                       1.99886
                       0.19323                      -5.13633                       2.30862
                       0.22062                      -5.78503                       2.61861
                       0.24818                      -6.43401                       2.92898
                       0.27587                      -7.08321                       3.23963
                       0.30367                      -7.73258                       3.55050
                       0.33156                      -8.38208                       3.86153
                       0.35486                      -8.92344                       4.12084
                       0.37363                      -9.35599                       4.32960
                       0.39317                      -9.78447                       4.54715
                       0.40236                     -10.00186                       4.64936
        </DataArray>
        <DataArray type="Float32" Name="RotationalVelocity" NumberOfComponents="3" format="ascii">
                       0.17362                      -0.00013                      -0.01522
                       0.17365                      -0.00013                      -0.01523
                       0.17373                      -0.00013                      -0.01523
                       0.17383                      -0.00012                      -0.01524
                       0.17397                      -0.00011                      -0.01525
                       0.17416                      -0.00009                      -0.01527
                       0.17434                      -0.00006                      -0.01529
                       0.17451                      -0.00003                      -0.01531
                       0.17467                      -0.00000                      -0.01534
                       0.17480                       0.00003                      -0.01536
                       0.17491                       0.00005                      -0.01539
                       0.17500                       0.00008                      -0.01541
                       0.17507                       0.00010                      -0.01543
                       0.17513                       0.00011                      -0.01545
                       0.17518                       0.00013                      -0.01546
                       0.17521                       0.00013                      -0.01547
                       0.17523                       0.00014                      -0.01547
                       0.17524                       0.00014                      -0.01547
                       0.17524                       0.00014                      -0.01546
        </DataArray>
        <DataArray type="Float32" Name="TranslationalAcceleration" NumberOfComponents="3" format="ascii">
                       0.00443                      -0.02429                      -0.03744
                      -0.00160                      -0.03047                      -0.04598
                      -0.00564                      -0.08518                      -0.13307
                      -0.01056                      -0.13440                      -0.21445
                      -0.01752                      -0.19131                      -0.31043
                      -0.02634                      -0.25953                      -0.41745
                      -0.03528                      -0.32941                      -0.51953
                      -0.04425                      -0.39929                      -0.62146
                      -0.05309                      -0.47004                      -0.72452
                      -0.06175                      -0.54187                      -0.82915
                      -0.07027                      -0.61452                      -0.93512
                      -0.07870                      -0.68762                      -1.04177
                      -0.08711                      -0.76067                      -1.14833
                      -0.09559                      -0.83326                      -1.25417
                      -0.10416                      -0.90523                      -1.35908
                      -0.11134                      -0.96487                      -1.44609
                      -0.11705                      -1.01289                      -1.51571
                      -0.12259                      -1.06287                      -1.58517
                      -0.12536                      -1.08713                      -1.62117
        </DataArray>
        <DataArray type="Float32" Name="OrientationX" NumberOfComponents="3" format="ascii">
                       0.98037                      -0.19060                       0.05041
                       0.98037                      -0.19061                       0.05039
                       0.98037                      -0.19064                       0.05033
                       0.98036                      -0.19069                       0.05024
                       0.98036                      -0.19077                       0.05009
                       0.98603                      -0.16256                       0.03635
                       0.98949                      -0.14221                       0.02625
                       0.99207                      -0.12445                       0.01728
                       0.99437                      -0.10570                       0.00771
                       0.99626                      -0.08642                      -0.00223
                       0.99760                      -0.06825                      -0.01177
                       0.99851                      -0.05027                      -0.02132
                       0.99897                      -0.03406                      -0.03013
                       0.99907                      -0.02194                      -0.03706
                       0.99899                      -0.01003                      -0.04388
                       0.99877                      -0.00004                      -0.04953
                       0.99853                       0.00740                      -0.05370
                       0.99836                       0.01128                      -0.05607
                       0.99836                       0.01117                      -0.05623
        </DataArray>
        <DataArray type="Float32" Name="OrientationY" NumberOfComponents="3" format="ascii">
                       0.19391                       0.88598                      -0.42123
                       0.19391                       0.88595                      -0.42131
                       0.19390                       0.88585                      -0.42152
                       0.19389                       0.88572                      -0.42179
                       0.19389                       0.88554                      -0.42217
                       0.16251                       0.89094                      -0.42404
                       0.13980                       0.89422                      -0.42525
                       0.11991                       0.89668                      -0.42614
                       0.09887                       0.89892                      -0.42681
                       0.07719                       0.90085                      -0.42722
                       0.05669                       0.90229                      -0.42738
                       0.03635                       0.90339                      -0.42728
                       0.01795                       0.90407                      -0.42700
                       0.00404                       0.90439                      -0.42669
                      -0.00964                       0.90455                      -0.42626
                      -0.02108                       0.90457                      -0.42580
                      -0.02958                       0.90452                      -0.42541
                      -0.03410                       0.90445                      -0.42520
                      -0.03407                       0.90445                      -0.42522
        </DataArray>
        <DataArray type="Float32" Name="OrientationZ" NumberOfComponents="3" format="ascii">
                       0.03562                       0.42273                       0.90555
                       0.03566                       0.42281                       0.90552
                       0.03577                       0.42301                       0.90542
                       0.03593                       0.42325                       0.90530
                       0.03618                       0.42359                       0.90513
                       0.03655                       0.42403                       0.90491
                       0.03700                       0.42445                       0.90470
                       0.03754                       0.42483                       0.90449
                       0.03818                       0.42517                       0.90431
                       0.03893                       0.42545                       0.90414
                       0.03978                       0.42568                       0.90400
                       0.04074                       0.42587                       0.90387
                       0.04179                       0.42602                       0.90375
                       0.04288                       0.42614                       0.90364
                       0.04397                       0.42625                       0.90354
                       0.04482                       0.42632                       0.90346
                       0.04543                       0.42638                       0.90340
                       0.04592                       0.42642                       0.90336
                       0.04611                       0.42644                       0.90334
        </DataArray>
        <DataArray type="Float32" Name="Force" NumberOfComponents="3" format="ascii">
                      31.55989                       0.39242                      -1.42464
                      70.02741                       2.88536                      -4.10487
                      77.11380                       7.28749                      -6.44940
                      59.25320                       8.73761                      -6.43150
                     408.74532                    -119.36459                      39.37962
                     388.75030                     -95.60960                      28.92442
                     404.07377                     -90.81210                      25.85764
                     358.02079                     -70.41205                      17.99978
                     321.79786                     -51.42811                      10.41000
                     325.30526                     -45.64941                       7.29214
                     303.91812                     -30.85594                       1.01615
                     304.72989                     -25.30785                      -1.93571
                     264.13480                     -14.44721                      -5.48213
                     259.67978                     -10.89759                      -7.24934
                     252.11757                      -7.38663                      -8.83515
                     244.73543                      -4.65478                      -9.98351
                     231.16594                      -2.68993                     -10.38215
                     164.94437                      -1.37360                      -7.75306
                     126.65079                      -8.58890                      -2.45926
        </DataArray>
        <DataArray type="Float32" Name="Moment" NumberOfComponents="3" format="ascii">
                       0.00000                       0.00000                       0.00000
                       0.00000                       0.00000                       0.00000
                       0.00000                       0.00000                       0.00000
                       0.00000                       0.00000                       0.00000
                     -11.09939                    -129.57610                    -277.55412
                     -11.75903                    -135.82774                    -290.93433
                     -11.28783                    -128.73895                    -275.73810
                     -11.01953                    -123.82410                    -265.19703
                     -10.36583                    -114.49446                    -245.20003
                      -9.75248                    -105.63210                    -226.20393
                      -8.29661                     -87.91766                    -188.25391
                      -7.79132                     -80.61338                    -172.59747
                      -7.17324                     -72.36227                    -154.91569
                      -6.56954                     -64.58221                    -138.24516
                      -5.90544                     -56.61686                    -121.18165
                      -5.33060                     -50.13490                    -107.29891
                      -4.57361                     -42.44583                     -90.83743
                      -2.22367                     -20.41646                     -43.69076
                      -1.36441                     -12.47542                     -26.69661
        </DataArray>
      </PointData>
      <Lines>
        <DataArray type="Int32" Name="connectivity" format="ascii">
      0      1
      1      2
      2      3
      3      4
      4      5
      5      6
      6      7
      7      8
      8      9
      9     10
     10     11
     11     12
     12     13
     13     14
     14     15
     15     16
     16     17
     17     18
        </DataArray>
        <DataArray type="Int32" Name="offsets" format="ascii">
      2
      4
      6
      8
     10
     12
     14
     16
     18
     20
     22
     24
     26
     28
     30
     32
     34
     36
        </DataArray>
      </Lines>
    </Piece>
  </PolyData>
</VTKFile>
