<?xml version="1.0"?>
<VTKFile type="PolyData" version="0.1" byte_order="LittleEndian">
  <PolyData>
    <Piece NumberOfPoints="     19" NumberOfVerts="  0" NumberOfLines="     18"
           NumberOfStrips="  0" NumberOfPolys="      0">
      <Points>
        <DataArray type="Float32" NumberOfComponents="3" format="ascii">
                      -4.96707                      -1.18933                      90.91568
                      -4.95484                      -2.27481                      91.74601
                      -4.95902                      -4.50306                      93.33236
                      -4.97638                      -6.75901                      94.88267
                      -5.00528                      -9.59632                      96.79772
                      -4.97543                     -12.91805                      99.20254
                      -4.91000                     -16.16427                     101.70533
                      -4.84349                     -19.41153                     104.20684
                      -4.77286                     -22.65866                     106.70855
                      -4.69857                     -25.90657                     109.20927
                      -4.62179                     -29.15714                     111.70653
                      -4.54138                     -32.40915                     114.20188
                      -4.45778                     -35.66229                     116.69573
                      -4.37165                     -38.91625                     119.18847
                      -4.28136                     -42.17096                     121.68015
                      -4.20299                     -44.88373                     123.75586
                      -4.13815                     -47.04944                     125.42227
                      -4.06896                     -49.18234                     127.13211
                      -4.03742                     -50.27394                     127.95370
        </DataArray>
      </Points>
      <PointData>
        <DataArray type="Float32" Name="TranslationalVelocity" NumberOfComponents="3" format="ascii">
                      -0.00820                      -0.14076                      -0.18158
                      -0.02268                      -0.26823                      -0.34800
                      -0.05242                      -0.51146                      -0.68972
                      -0.08251                      -0.74908                      -1.03583
                      -0.12030                      -1.04265                      -1.47138
                      -0.16441                      -1.41243                      -1.98167
                      -0.20734                      -1.79805                      -2.48078
                      -0.25008                      -2.18379                      -2.98045
                      -0.29261                      -2.56991                      -3.48047
                      -0.33490                      -2.95619                      -3.98095
                      -0.37698                      -3.34220                      -4.48213
                      -0.41882                      -3.72816                      -4.98377
                      -0.46041                      -4.11407                      -5.48578
                      -0.50177                      -4.49995                      -5.98806
                      -0.54292                      -4.88581                      -6.49058
                      -0.57707                      -5.20735                      -6.90950
                      -0.60426                      -5.46554                      -7.24399
                      -0.63094                      -5.73052                      -7.57346
                      -0.64462                      -5.85784                      -7.74209
        </DataArray>
        <DataArray type="Float32" Name="RotationalVelocity" NumberOfComponents="3" format="ascii">
                       0.15330                       0.00014                      -0.01345
                       0.15332                       0.00014                      -0.01345
                       0.15337                       0.00014                      -0.01344
                       0.15343                       0.00015                      -0.01344
                       0.15353                       0.00017                      -0.01342
                       0.15365                       0.00019                      -0.01340
                       0.15377                       0.00022                      -0.01337
                       0.15389                       0.00026                      -0.01333
                       0.15400                       0.00030                      -0.01329
                       0.15409                       0.00034                      -0.01325
                       0.15417                       0.00038                      -0.01320
                       0.15424                       0.00043                      -0.01316
                       0.15429                       0.00047                      -0.01311
                       0.15434                       0.00051                      -0.01306
                       0.15437                       0.00054                      -0.01302
                       0.15440                       0.00056                      -0.01300
                       0.15441                       0.00057                      -0.01298
                       0.15442                       0.00057                      -0.01297
                       0.15442                       0.00057                      -0.01297
        </DataArray>
        <DataArray type="Float32" Name="TranslationalAcceleration" NumberOfComponents="3" format="ascii">
                      -0.01283                       0.02319                      -0.02760
                      -0.00614                       0.02907                      -0.03239
                      -0.01615                       0.08479                      -0.09119
                      -0.02378                       0.13738                      -0.14433
                      -0.03112                       0.19979                      -0.20573
                      -0.03820                       0.26862                      -0.27731
                      -0.04462                       0.33346                      -0.34891
                      -0.05101                       0.39826                      -0.42032
                      -0.05782                       0.46381                      -0.49256
                      -0.06520                       0.53038                      -0.56590
                      -0.07309                       0.59783                      -0.64012
                      -0.08130                       0.66573                      -0.71479
                      -0.08960                       0.73357                      -0.78937
                      -0.09782                       0.80097                      -0.86340
                      -0.10588                       0.86778                      -0.93671
                      -0.11259                       0.92322                      -0.99742
                      -0.11810                       0.96752                      -1.04622
                      -0.12405                       1.01135                      -1.09649
                      -0.12718                       1.03435                      -1.12133
        </DataArray>
        <DataArray type="Float32" Name="OrientationX" NumberOfComponents="3" format="ascii">
                       0.95480                      -0.17380                      -0.24116
                       0.95480                      -0.17374                      -0.24121
                       0.95479                      -0.17354                      -0.24136
                       0.95479                      -0.17325                      -0.24159
                       0.95477                      -0.17280                      -0.24197
                       0.96375                      -0.15348                      -0.21826
                       0.96960                      -0.13921                      -0.20125
                       0.97428                      -0.12656                      -0.18644
                       0.97880                      -0.11313                      -0.17074
                       0.98299                      -0.09925                      -0.15454
                       0.98652                      -0.08601                      -0.13924
                       0.98960                      -0.07281                      -0.12406
                       0.99203                      -0.06073                      -0.11036
                       0.99365                      -0.05134                      -0.10017
                       0.99504                      -0.04214                      -0.09008
                       0.99607                      -0.03453                      -0.08155
                       0.99675                      -0.02892                      -0.07514
                       0.99708                      -0.02583                      -0.07181
                       0.99708                      -0.02572                      -0.07193
        </DataArray>
        <DataArray type="Float32" Name="OrientationY" NumberOfComponents="3" format="ascii">
                       0.29710                       0.58442                       0.75511
                       0.29710                       0.58430                       0.75519
                       0.29711                       0.58401                       0.75542
                       0.29712                       0.58364                       0.75570
                       0.29715                       0.58311                       0.75610
                       0.26659                       0.58764                       0.76394
                       0.24443                       0.59032                       0.76927
                       0.22499                       0.59235                       0.77363
                       0.20438                       0.59432                       0.77783
                       0.18309                       0.59613                       0.78173
                       0.16291                       0.59761                       0.78506
                       0.14285                       0.59888                       0.78800
                       0.12465                       0.59982                       0.79037
                       0.11086                       0.60037                       0.79200
                       0.09727                       0.60082                       0.79345
                       0.08588                       0.60113                       0.79452
                       0.07740                       0.60133                       0.79524
                       0.07288                       0.60141                       0.79561
                       0.07291                       0.60139                       0.79562
        </DataArray>
        <DataArray type="Float32" Name="OrientationZ" NumberOfComponents="3" format="ascii">
                       0.00970                      -0.79262                       0.60963
                       0.00973                      -0.79272                       0.60951
                       0.00986                      -0.79298                       0.60917
                       0.01007                      -0.79332                       0.60873
                       0.01044                      -0.79380                       0.60809
                       0.01101                      -0.79443                       0.60725
                       0.01171                      -0.79507                       0.60640
                       0.01253                      -0.79568                       0.60559
                       0.01348                      -0.79624                       0.60484
                       0.01454                      -0.79673                       0.60416
                       0.01569                      -0.79716                       0.60356
                       0.01692                      -0.79752                       0.60305
                       0.01820                      -0.79783                       0.60261
                       0.01948                      -0.79808                       0.60224
                       0.02068                      -0.79827                       0.60194
                       0.02158                      -0.79840                       0.60174
                       0.02218                      -0.79848                       0.60161
                       0.02264                      -0.79853                       0.60153
                       0.02280                      -0.79854                       0.60151
        </DataArray>
        <DataArray type="Float32" Name="Force" NumberOfComponents="3" format="ascii">
                      51.22085                       1.80373                       1.53012
                      70.44917                       2.88759                       2.62832
                      78.06475                       5.65106                       6.07928
                      60.30009                       6.23712                       7.10557
                     412.93208                    -103.76977                    -142.09315
                     386.42651                     -84.20628                    -116.60969
                     400.36003                     -80.79879                    -112.95394
                     350.05996                     -63.25823                     -89.67651
                     312.86003                     -48.09310                     -69.69096
                     314.87935                     -43.73280                     -64.64785
                     292.42336                     -32.27074                     -49.76592
                     292.08800                     -28.21207                     -45.09192
                     251.94137                     -19.11666                     -32.64947
                     246.46117                     -16.13482                     -29.12972
                     239.25709                     -13.31927                     -25.71254
                     231.99415                     -11.05960                     -22.86568
                     218.54145                      -9.15872                     -20.11892
                     155.02375                      -6.06016                     -13.82031
                     132.12205                      -5.15749                     -11.80406
        </DataArray>
        <DataArray type="Float32" Name="Moment" NumberOfComponents="3" format="ascii">
                       0.00000                       0.00000                       0.00000
                       0.00000                       0.00000                       0.00000
                       0.00000                       0.00000                       0.00000
                       0.00000                       0.00000                       0.00000
                      -3.16006                     237.01946                    -182.27722
                      -3.51699                     248.77975                    -191.30379
                      -3.57068                     236.30691                    -181.69239
                      -3.68670                     227.06551                    -174.56440
                      -3.66774                     209.53109                    -161.06090
                      -3.64363                     192.74912                    -148.13739
                      -3.25641                     159.49863                    -122.56155
                      -3.20692                     145.65395                    -111.90259
                      -3.07807                     130.06253                     -99.90525
                      -2.92489                     115.58977                     -88.77164
                      -2.71895                     101.26253                     -77.75475
                      -2.50634                      89.51563                     -68.72583
                      -2.17374                      75.56997                     -58.01394
                      -1.06094                      36.15716                     -27.75548
                      -0.87631                      29.66045                     -22.76786
        </DataArray>
      </PointData>
      <Lines>
        <DataArray type="Int32" Name="connectivity" format="ascii">
      0      1
      1      2
      2      3
      3      4
      4      5
      5      6
      6      7
      7      8
      8      9
      9     10
     10     11
     11     12
     12     13
     13     14
     14     15
     15     16
     16     17
     17     18
        </DataArray>
        <DataArray type="Int32" Name="offsets" format="ascii">
      2
      4
      6
      8
     10
     12
     14
     16
     18
     20
     22
     24
     26
     28
     30
     32
     34
     36
        </DataArray>
      </Lines>
    </Piece>
  </PolyData>
</VTKFile>
