<?xml version="1.0"?>
<VTKFile type="PolyData" version="0.1" byte_order="LittleEndian">
  <PolyData>
    <Piece NumberOfPoints="     22" NumberOfVerts="  0" NumberOfLines="     21"
           NumberOfStrips="  0" NumberOfPolys="      0">
      <Points>
        <DataArray type="Float32" NumberOfComponents="3" format="ascii">
                       0.00001                      -0.00000                       2.19000
                       0.00010                      -0.00001                       6.57000
                       0.00030                      -0.00002                      10.95000
                       0.00061                      -0.00003                      15.33000
                       0.00103                      -0.00005                      19.71000
                       0.00154                      -0.00007                      24.09000
                       0.00213                      -0.00010                      28.47000
                       0.00280                      -0.00013                      32.85000
                       0.00352                      -0.00016                      37.23000
                       0.00429                      -0.00021                      41.61000
                       0.00510                      -0.00025                      45.99000
                       0.00594                      -0.00031                      50.37000
                       0.00681                      -0.00037                      54.75000
                       0.00770                      -0.00043                      59.13000
                       0.00862                      -0.00050                      63.51000
                       0.00954                      -0.00058                      67.89000
                       0.01048                      -0.00067                      72.27000
                       0.01141                      -0.00075                      76.65000
                       0.01231                      -0.00085                      81.03000
                       0.01315                      -0.00094                      85.41000
                       0.01353                      -0.00099                      87.60000
                       0.00000                       0.00000                       0.00000
        </DataArray>
      </Points>
      <PointData>
        <DataArray type="Float32" Name="TranslationalVelocity" NumberOfComponents="3" format="ascii">
                      -0.00000                       0.00000                       0.00000
                      -0.00003                       0.00000                       0.00000
                      -0.00009                       0.00000                       0.00000
                      -0.00019                       0.00001                       0.00000
                      -0.00032                       0.00001                       0.00000
                      -0.00049                       0.00002                       0.00000
                      -0.00069                       0.00003                       0.00000
                      -0.00093                       0.00004                       0.00000
                      -0.00120                       0.00005                       0.00000
                      -0.00150                       0.00006                       0.00000
                      -0.00184                       0.00007                       0.00000
                      -0.00221                       0.00008                       0.00000
                      -0.00263                       0.00010                       0.00000
                      -0.00308                       0.00011                       0.00000
                      -0.00357                       0.00013                       0.00000
                      -0.00410                       0.00015                       0.00000
                      -0.00466                       0.00017                       0.00000
                      -0.00526                       0.00018                       0.00000
                      -0.00586                       0.00020                       0.00000
                      -0.00646                       0.00023                       0.00000
                      -0.00674                       0.00024                       0.00000
                       0.00000                      -0.00000                       0.00000
        </DataArray>
        <DataArray type="Float32" Name="RotationalVelocity" NumberOfComponents="3" format="ascii">
                      -0.00000                      -0.00000                       0.00000
                      -0.00000                      -0.00001                       0.00000
                      -0.00000                      -0.00002                       0.00000
                      -0.00000                      -0.00003                       0.00000
                      -0.00000                      -0.00003                       0.00000
                      -0.00000                      -0.00004                       0.00000
                      -0.00000                      -0.00005                       0.00000
                      -0.00000                      -0.00006                       0.00000
                      -0.00000                      -0.00007                       0.00000
                      -0.00000                      -0.00007                       0.00000
                      -0.00000                      -0.00008                       0.00000
                      -0.00000                      -0.00009                       0.00000
                      -0.00000                      -0.00010                       0.00000
                      -0.00000                      -0.00011                       0.00000
                      -0.00000                      -0.00012                       0.00000
                      -0.00000                      -0.00013                       0.00000
                      -0.00000                      -0.00013                       0.00000
                      -0.00000                      -0.00014                       0.00000
                      -0.00000                      -0.00014                       0.00000
                      -0.00000                      -0.00013                       0.00000
                      -0.00000                      -0.00013                       0.00000
                       0.00000                      -0.00000                       0.00000
        </DataArray>
        <DataArray type="Float32" Name="TranslationalAcceleration" NumberOfComponents="3" format="ascii">
                       0.00000                       0.00000                      -0.00000
                       0.00005                       0.00001                      -0.00000
                       0.00015                       0.00002                      -0.00000
                       0.00030                       0.00004                      -0.00000
                       0.00051                       0.00007                      -0.00000
                       0.00077                       0.00010                      -0.00000
                       0.00109                       0.00014                      -0.00000
                       0.00146                       0.00019                      -0.00000
                       0.00188                       0.00024                      -0.00000
                       0.00234                       0.00029                      -0.00000
                       0.00286                       0.00036                      -0.00000
                       0.00342                       0.00043                      -0.00000
                       0.00403                       0.00051                      -0.00000
                       0.00470                       0.00059                      -0.00000
                       0.00543                       0.00068                      -0.00000
                       0.00620                       0.00078                      -0.00000
                       0.00703                       0.00088                      -0.00000
                       0.00788                       0.00099                      -0.00000
                       0.00876                       0.00110                      -0.00000
                       0.00961                       0.00121                      -0.00000
                       0.01002                       0.00127                      -0.00000
                       0.00000                      -0.00000                       0.00000
        </DataArray>
        <DataArray type="Float32" Name="RotationalAcceleration" NumberOfComponents="3" format="ascii">
                      -0.00000                       0.00000                       0.00000
                      -0.00000                       0.00002                       0.00000
                      -0.00000                       0.00003                       0.00000
                      -0.00001                       0.00004                       0.00000
                      -0.00001                       0.00005                       0.00000
                      -0.00001                       0.00007                       0.00000
                      -0.00001                       0.00008                       0.00000
                      -0.00001                       0.00009                       0.00000
                      -0.00001                       0.00010                       0.00000
                      -0.00001                       0.00011                       0.00000
                      -0.00002                       0.00012                       0.00000
                      -0.00002                       0.00013                       0.00000
                      -0.00002                       0.00015                       0.00000
                      -0.00002                       0.00016                       0.00000
                      -0.00002                       0.00017                       0.00000
                      -0.00002                       0.00018                       0.00000
                      -0.00002                       0.00019                       0.00000
                      -0.00003                       0.00020                       0.00000
                      -0.00003                       0.00020                       0.00000
                      -0.00003                       0.00019                       0.00000
                      -0.00003                       0.00018                       0.00000
                       0.00000                      -0.00000                       0.00000
        </DataArray>
        <DataArray type="Float32" Name="OrientationX" NumberOfComponents="3" format="ascii">
                       1.00000                       0.00000                      -0.00001
                       1.00000                       0.00000                      -0.00003
                       1.00000                       0.00000                      -0.00006
                       1.00000                       0.00000                      -0.00008
                       1.00000                       0.00000                      -0.00011
                       1.00000                       0.00000                      -0.00013
                       1.00000                       0.00000                      -0.00014
                       1.00000                       0.00000                      -0.00016
                       1.00000                       0.00000                      -0.00017
                       1.00000                       0.00000                      -0.00018
                       1.00000                       0.00000                      -0.00019
                       1.00000                       0.00000                      -0.00020
                       1.00000                       0.00000                      -0.00020
                       1.00000                       0.00000                      -0.00021
                       1.00000                       0.00000                      -0.00021
                       1.00000                       0.00000                      -0.00021
                       1.00000                       0.00000                      -0.00021
                       1.00000                       0.00000                      -0.00021
                       1.00000                       0.00000                      -0.00020
                       1.00000                       0.00000                      -0.00018
                       1.00000                       0.00000                      -0.00017
                       1.00000                      -0.00000                       0.00000
        </DataArray>
        <DataArray type="Float32" Name="OrientationY" NumberOfComponents="3" format="ascii">
                       0.00000                       1.00000                       0.00000
                       0.00000                       1.00000                       0.00000
                       0.00000                       1.00000                       0.00000
                       0.00000                       1.00000                       0.00000
                       0.00000                       1.00000                       0.00000
                       0.00000                       1.00000                       0.00001
                       0.00000                       1.00000                       0.00001
                       0.00000                       1.00000                       0.00001
                       0.00000                       1.00000                       0.00001
                       0.00000                       1.00000                       0.00001
                       0.00000                       1.00000                       0.00001
                       0.00000                       1.00000                       0.00001
                       0.00000                       1.00000                       0.00001
                       0.00000                       1.00000                       0.00002
                       0.00000                       1.00000                       0.00002
                       0.00000                       1.00000                       0.00002
                       0.00000                       1.00000                       0.00002
                       0.00000                       1.00000                       0.00002
                       0.00000                       1.00000                       0.00002
                       0.00000                       1.00000                       0.00002
                       0.00000                       1.00000                       0.00002
                      -0.00000                       1.00000                      -0.00000
        </DataArray>
        <DataArray type="Float32" Name="OrientationZ" NumberOfComponents="3" format="ascii">
                       0.00001                      -0.00000                       1.00000
                       0.00003                      -0.00000                       1.00000
                       0.00006                      -0.00000                       1.00000
                       0.00008                      -0.00000                       1.00000
                       0.00011                      -0.00000                       1.00000
                       0.00013                      -0.00001                       1.00000
                       0.00014                      -0.00001                       1.00000
                       0.00016                      -0.00001                       1.00000
                       0.00017                      -0.00001                       1.00000
                       0.00018                      -0.00001                       1.00000
                       0.00019                      -0.00001                       1.00000
                       0.00020                      -0.00001                       1.00000
                       0.00020                      -0.00001                       1.00000
                       0.00021                      -0.00002                       1.00000
                       0.00021                      -0.00002                       1.00000
                       0.00021                      -0.00002                       1.00000
                       0.00021                      -0.00002                       1.00000
                       0.00021                      -0.00002                       1.00000
                       0.00020                      -0.00002                       1.00000
                       0.00018                      -0.00002                       1.00000
                       0.00017                      -0.00002                       1.00000
                       0.00000                      -0.00000                       1.00000
        </DataArray>
      </PointData>
      <Lines>
        <DataArray type="Int32" Name="connectivity" format="ascii">
      0      1
      1      2
      2      3
      3      4
      4      5
      5      6
      6      7
      7      8
      8      9
      9     10
     10     11
     11     12
     12     13
     13     14
     14     15
     15     16
     16     17
     17     18
     18     19
     19     20
     21      0
        </DataArray>
        <DataArray type="Int32" Name="offsets" format="ascii">
      2
      4
      6
      8
     10
     12
     14
     16
     18
     20
     22
     24
     26
     28
     30
     32
     34
     36
     38
     40
     42
        </DataArray>
      </Lines>
    </Piece>
  </PolyData>
</VTKFile>
