<?xml version="1.0"?>
<VTKFile type="PolyData" version="0.1" byte_order="LittleEndian">
  <PolyData>
    <Piece NumberOfPoints="     22" NumberOfVerts="  0" NumberOfLines="     21"
           NumberOfStrips="  0" NumberOfPolys="      0">
      <Points>
        <DataArray type="Float32" NumberOfComponents="3" format="ascii">
                       0.00001                      -0.00000                       2.19000
                       0.00013                      -0.00000                       6.57000
                       0.00038                      -0.00000                      10.95000
                       0.00077                      -0.00001                      15.33000
                       0.00130                      -0.00001                      19.71000
                       0.00195                      -0.00002                      24.09000
                       0.00271                      -0.00003                      28.47000
                       0.00356                      -0.00004                      32.85000
                       0.00450                      -0.00005                      37.23000
                       0.00552                      -0.00007                      41.61000
                       0.00659                      -0.00009                      45.99000
                       0.00772                      -0.00011                      50.37000
                       0.00891                      -0.00013                      54.75000
                       0.01014                      -0.00016                      59.13000
                       0.01142                      -0.00019                      63.51000
                       0.01274                      -0.00022                      67.89000
                       0.01409                      -0.00026                      72.27000
                       0.01545                      -0.00030                      76.65000
                       0.01678                      -0.00034                      81.03000
                       0.01805                      -0.00038                      85.41000
                       0.01864                      -0.00041                      87.60000
                       0.00000                       0.00000                       0.00000
        </DataArray>
      </Points>
      <PointData>
        <DataArray type="Float32" Name="TranslationalVelocity" NumberOfComponents="3" format="ascii">
                       0.00000                      -0.00000                      -0.00000
                       0.00002                      -0.00000                      -0.00000
                       0.00006                      -0.00001                      -0.00000
                       0.00013                      -0.00002                      -0.00000
                       0.00021                      -0.00003                      -0.00000
                       0.00033                      -0.00004                      -0.00000
                       0.00046                      -0.00006                      -0.00000
                       0.00062                      -0.00008                      -0.00000
                       0.00080                      -0.00010                      -0.00000
                       0.00100                      -0.00013                      -0.00000
                       0.00123                      -0.00015                      -0.00000
                       0.00147                      -0.00018                      -0.00000
                       0.00175                      -0.00021                      -0.00000
                       0.00204                      -0.00025                      -0.00000
                       0.00237                      -0.00029                      -0.00000
                       0.00272                      -0.00033                      -0.00000
                       0.00309                      -0.00037                      -0.00000
                       0.00348                      -0.00041                      -0.00000
                       0.00388                      -0.00045                      -0.00000
                       0.00427                      -0.00050                      -0.00000
                       0.00446                      -0.00052                      -0.00000
                       0.00000                      -0.00000                       0.00000
        </DataArray>
        <DataArray type="Float32" Name="RotationalVelocity" NumberOfComponents="3" format="ascii">
                       0.00000                       0.00000                       0.00000
                       0.00000                       0.00001                       0.00000
                       0.00000                       0.00001                       0.00000
                       0.00000                       0.00002                       0.00000
                       0.00000                       0.00002                       0.00000
                       0.00000                       0.00003                       0.00000
                       0.00000                       0.00003                       0.00000
                       0.00000                       0.00004                       0.00000
                       0.00001                       0.00004                       0.00000
                       0.00001                       0.00005                       0.00000
                       0.00001                       0.00005                       0.00000
                       0.00001                       0.00006                       0.00000
                       0.00001                       0.00007                       0.00000
                       0.00001                       0.00007                       0.00000
                       0.00001                       0.00008                       0.00000
                       0.00001                       0.00008                       0.00000
                       0.00001                       0.00009                       0.00000
                       0.00001                       0.00009                       0.00000
                       0.00001                       0.00009                       0.00000
                       0.00001                       0.00009                       0.00000
                       0.00001                       0.00008                       0.00000
                       0.00000                      -0.00000                       0.00000
        </DataArray>
        <DataArray type="Float32" Name="TranslationalAcceleration" NumberOfComponents="3" format="ascii">
                      -0.00001                      -0.00000                       0.00000
                      -0.00009                      -0.00000                       0.00000
                      -0.00026                      -0.00000                       0.00000
                      -0.00053                      -0.00001                       0.00000
                      -0.00091                      -0.00001                       0.00000
                      -0.00139                      -0.00002                       0.00000
                      -0.00197                      -0.00003                       0.00000
                      -0.00264                      -0.00003                       0.00000
                      -0.00341                      -0.00004                       0.00000
                      -0.00426                      -0.00005                       0.00000
                      -0.00522                      -0.00007                       0.00000
                      -0.00627                      -0.00008                       0.00000
                      -0.00743                      -0.00009                       0.00000
                      -0.00869                      -0.00011                       0.00000
                      -0.01007                      -0.00013                       0.00000
                      -0.01155                      -0.00015                       0.00000
                      -0.01314                      -0.00016                       0.00000
                      -0.01479                      -0.00019                       0.00000
                      -0.01648                      -0.00021                       0.00000
                      -0.01814                      -0.00023                       0.00000
                      -0.01894                      -0.00024                       0.00000
                       0.00000                      -0.00000                       0.00000
        </DataArray>
        <DataArray type="Float32" Name="RotationalAcceleration" NumberOfComponents="3" format="ascii">
                       0.00000                      -0.00001                       0.00000
                       0.00000                      -0.00003                       0.00000
                       0.00000                      -0.00005                       0.00000
                       0.00000                      -0.00007                       0.00000
                       0.00000                      -0.00010                       0.00000
                       0.00000                      -0.00012                       0.00000
                       0.00000                      -0.00014                       0.00000
                       0.00000                      -0.00016                       0.00000
                       0.00000                      -0.00019                       0.00000
                       0.00000                      -0.00021                       0.00000
                       0.00000                      -0.00023                       0.00000
                       0.00000                      -0.00025                       0.00000
                       0.00000                      -0.00028                       0.00000
                       0.00000                      -0.00030                       0.00000
                       0.00000                      -0.00033                       0.00000
                       0.00000                      -0.00035                       0.00000
                       0.00000                      -0.00037                       0.00000
                       0.00000                      -0.00038                       0.00000
                       0.00000                      -0.00039                       0.00000
                       0.00001                      -0.00037                       0.00000
                       0.00001                      -0.00036                       0.00000
                       0.00000                      -0.00000                       0.00000
        </DataArray>
        <DataArray type="Float32" Name="OrientationX" NumberOfComponents="3" format="ascii">
                       1.00000                       0.00000                      -0.00001
                       1.00000                       0.00000                      -0.00004
                       1.00000                       0.00000                      -0.00007
                       1.00000                       0.00000                      -0.00010
                       1.00000                       0.00000                      -0.00013
                       1.00000                       0.00000                      -0.00016
                       1.00000                       0.00000                      -0.00019
                       1.00000                       0.00000                      -0.00021
                       1.00000                       0.00000                      -0.00022
                       1.00000                       0.00000                      -0.00024
                       1.00000                       0.00000                      -0.00025
                       1.00000                       0.00000                      -0.00026
                       1.00000                       0.00000                      -0.00028
                       1.00000                       0.00000                      -0.00029
                       1.00000                       0.00000                      -0.00030
                       1.00000                       0.00000                      -0.00031
                       1.00000                       0.00000                      -0.00031
                       1.00000                       0.00000                      -0.00031
                       1.00000                       0.00000                      -0.00030
                       1.00000                       0.00000                      -0.00028
                       1.00000                       0.00000                      -0.00026
                       1.00000                      -0.00000                       0.00000
        </DataArray>
        <DataArray type="Float32" Name="OrientationY" NumberOfComponents="3" format="ascii">
                       0.00000                       1.00000                       0.00000
                       0.00000                       1.00000                       0.00000
                       0.00000                       1.00000                       0.00000
                       0.00000                       1.00000                       0.00000
                       0.00000                       1.00000                       0.00000
                       0.00000                       1.00000                       0.00000
                       0.00000                       1.00000                       0.00000
                       0.00000                       1.00000                       0.00000
                       0.00000                       1.00000                       0.00000
                       0.00000                       1.00000                       0.00000
                       0.00000                       1.00000                       0.00000
                       0.00000                       1.00000                       0.00001
                       0.00000                       1.00000                       0.00001
                       0.00000                       1.00000                       0.00001
                       0.00000                       1.00000                       0.00001
                       0.00000                       1.00000                       0.00001
                       0.00000                       1.00000                       0.00001
                       0.00000                       1.00000                       0.00001
                       0.00000                       1.00000                       0.00001
                       0.00000                       1.00000                       0.00001
                       0.00000                       1.00000                       0.00001
                      -0.00000                       1.00000                      -0.00000
        </DataArray>
        <DataArray type="Float32" Name="OrientationZ" NumberOfComponents="3" format="ascii">
                       0.00001                      -0.00000                       1.00000
                       0.00004                      -0.00000                       1.00000
                       0.00007                      -0.00000                       1.00000
                       0.00010                      -0.00000                       1.00000
                       0.00013                      -0.00000                       1.00000
                       0.00016                      -0.00000                       1.00000
                       0.00019                      -0.00000                       1.00000
                       0.00021                      -0.00000                       1.00000
                       0.00022                      -0.00000                       1.00000
                       0.00024                      -0.00000                       1.00000
                       0.00025                      -0.00000                       1.00000
                       0.00026                      -0.00001                       1.00000
                       0.00028                      -0.00001                       1.00000
                       0.00029                      -0.00001                       1.00000
                       0.00030                      -0.00001                       1.00000
                       0.00031                      -0.00001                       1.00000
                       0.00031                      -0.00001                       1.00000
                       0.00031                      -0.00001                       1.00000
                       0.00030                      -0.00001                       1.00000
                       0.00028                      -0.00001                       1.00000
                       0.00026                      -0.00001                       1.00000
                       0.00000                      -0.00000                       1.00000
        </DataArray>
      </PointData>
      <Lines>
        <DataArray type="Int32" Name="connectivity" format="ascii">
      0      1
      1      2
      2      3
      3      4
      4      5
      5      6
      6      7
      7      8
      8      9
      9     10
     10     11
     11     12
     12     13
     13     14
     14     15
     15     16
     16     17
     17     18
     18     19
     19     20
     21      0
        </DataArray>
        <DataArray type="Int32" Name="offsets" format="ascii">
      2
      4
      6
      8
     10
     12
     14
     16
     18
     20
     22
     24
     26
     28
     30
     32
     34
     36
     38
     40
     42
        </DataArray>
      </Lines>
    </Piece>
  </PolyData>
</VTKFile>
