<?xml version="1.0"?>
<VTKFile type="PolyData" version="0.1" byte_order="LittleEndian">
  <PolyData>
    <Piece NumberOfPoints="     22" NumberOfVerts="  0" NumberOfLines="     21"
           NumberOfStrips="  0" NumberOfPolys="      0">
      <Points>
        <DataArray type="Float32" NumberOfComponents="3" format="ascii">
                       0.00001                      -0.00000                       2.19000
                       0.00007                      -0.00000                       6.57000
                       0.00021                      -0.00001                      10.95000
                       0.00042                      -0.00001                      15.33000
                       0.00069                      -0.00002                      19.71000
                       0.00102                      -0.00003                      24.09000
                       0.00140                      -0.00004                      28.47000
                       0.00182                      -0.00005                      32.85000
                       0.00226                      -0.00007                      37.23000
                       0.00271                      -0.00008                      41.61000
                       0.00317                      -0.00010                      45.99000
                       0.00363                      -0.00013                      50.37000
                       0.00407                      -0.00015                      54.75000
                       0.00450                      -0.00018                      59.13000
                       0.00491                      -0.00022                      63.51000
                       0.00529                      -0.00025                      67.89000
                       0.00565                      -0.00029                      72.27000
                       0.00597                      -0.00033                      76.65000
                       0.00625                      -0.00038                      81.03000
                       0.00649                      -0.00042                      85.41000
                       0.00658                      -0.00045                      87.60000
                       0.00000                       0.00000                       0.00000
        </DataArray>
      </Points>
      <PointData>
        <DataArray type="Float32" Name="TranslationalVelocity" NumberOfComponents="3" format="ascii">
                      -0.00001                       0.00000                       0.00000
                      -0.00007                       0.00000                       0.00000
                      -0.00020                       0.00001                       0.00000
                      -0.00041                       0.00002                       0.00000
                      -0.00070                       0.00003                       0.00000
                      -0.00107                       0.00005                       0.00000
                      -0.00152                       0.00006                       0.00000
                      -0.00203                       0.00008                       0.00000
                      -0.00262                       0.00010                       0.00000
                      -0.00328                       0.00013                       0.00000
                      -0.00401                       0.00016                       0.00000
                      -0.00482                       0.00019                       0.00000
                      -0.00571                       0.00023                       0.00000
                      -0.00668                       0.00026                       0.00000
                      -0.00774                       0.00030                       0.00000
                      -0.00887                       0.00035                       0.00000
                      -0.01009                       0.00040                       0.00000
                      -0.01136                       0.00045                       0.00000
                      -0.01265                       0.00050                       0.00000
                      -0.01393                       0.00055                       0.00000
                      -0.01454                       0.00058                       0.00000
                       0.00000                      -0.00000                       0.00000
        </DataArray>
        <DataArray type="Float32" Name="RotationalVelocity" NumberOfComponents="3" format="ascii">
                      -0.00000                      -0.00001                       0.00000
                      -0.00000                      -0.00002                       0.00000
                      -0.00000                      -0.00004                       0.00000
                      -0.00000                      -0.00006                       0.00000
                      -0.00000                      -0.00008                       0.00000
                      -0.00000                      -0.00009                       0.00000
                      -0.00000                      -0.00011                       0.00000
                      -0.00000                      -0.00013                       0.00000
                      -0.00001                      -0.00014                       0.00000
                      -0.00001                      -0.00016                       0.00000
                      -0.00001                      -0.00018                       0.00000
                      -0.00001                      -0.00019                       0.00000
                      -0.00001                      -0.00021                       0.00000
                      -0.00001                      -0.00023                       0.00000
                      -0.00001                      -0.00025                       0.00000
                      -0.00001                      -0.00027                       0.00000
                      -0.00001                      -0.00028                       0.00000
                      -0.00001                      -0.00029                       0.00000
                      -0.00001                      -0.00030                       0.00000
                      -0.00001                      -0.00028                       0.00000
                      -0.00001                      -0.00027                       0.00000
                       0.00000                      -0.00000                       0.00000
        </DataArray>
        <DataArray type="Float32" Name="TranslationalAcceleration" NumberOfComponents="3" format="ascii">
                       0.00006                       0.00000                      -0.00000
                       0.00056                       0.00001                      -0.00000
                       0.00159                       0.00002                      -0.00000
                       0.00312                       0.00004                      -0.00000
                       0.00509                       0.00007                      -0.00000
                       0.00742                       0.00009                      -0.00000
                       0.01001                       0.00012                      -0.00000
                       0.01272                       0.00015                      -0.00000
                       0.01543                       0.00017                      -0.00000
                       0.01802                       0.00020                      -0.00000
                       0.02038                       0.00022                      -0.00000
                       0.02239                       0.00023                      -0.00000
                       0.02397                       0.00024                      -0.00000
                       0.02505                       0.00024                      -0.00000
                       0.02556                       0.00023                      -0.00000
                       0.02547                       0.00021                      -0.00000
                       0.02479                       0.00018                      -0.00000
                       0.02352                       0.00014                      -0.00000
                       0.02168                       0.00008                      -0.00000
                       0.01934                       0.00002                      -0.00000
                       0.01800                      -0.00001                      -0.00000
                       0.00000                      -0.00000                       0.00000
        </DataArray>
        <DataArray type="Float32" Name="RotationalAcceleration" NumberOfComponents="3" format="ascii">
                      -0.00000                       0.00006                       0.00000
                      -0.00000                       0.00017                       0.00000
                      -0.00000                       0.00029                       0.00000
                      -0.00000                       0.00040                       0.00000
                      -0.00001                       0.00050                       0.00000
                      -0.00001                       0.00057                       0.00000
                      -0.00001                       0.00061                       0.00000
                      -0.00001                       0.00062                       0.00000
                      -0.00001                       0.00061                       0.00000
                      -0.00001                       0.00057                       0.00000
                      -0.00000                       0.00050                       0.00000
                      -0.00000                       0.00041                       0.00000
                      -0.00000                       0.00031                       0.00000
                       0.00000                       0.00018                       0.00000
                       0.00000                       0.00005                       0.00000
                       0.00001                      -0.00009                       0.00000
                       0.00001                      -0.00022                       0.00000
                       0.00001                      -0.00036                       0.00000
                       0.00001                      -0.00048                       0.00000
                       0.00001                      -0.00059                       0.00000
                       0.00001                      -0.00064                       0.00000
                       0.00000                      -0.00000                       0.00000
        </DataArray>
        <DataArray type="Float32" Name="OrientationX" NumberOfComponents="3" format="ascii">
                       1.00000                       0.00000                      -0.00001
                       1.00000                       0.00000                      -0.00002
                       1.00000                       0.00000                      -0.00004
                       1.00000                       0.00000                      -0.00006
                       1.00000                       0.00000                      -0.00007
                       1.00000                       0.00000                      -0.00008
                       1.00000                       0.00000                      -0.00009
                       1.00000                       0.00000                      -0.00010
                       1.00000                       0.00000                      -0.00010
                       1.00000                       0.00000                      -0.00010
                       1.00000                       0.00000                      -0.00010
                       1.00000                       0.00000                      -0.00010
                       1.00000                       0.00000                      -0.00010
                       1.00000                       0.00000                      -0.00010
                       1.00000                       0.00000                      -0.00009
                       1.00000                       0.00000                      -0.00008
                       1.00000                       0.00000                      -0.00008
                       1.00000                       0.00000                      -0.00007
                       1.00000                       0.00000                      -0.00006
                       1.00000                       0.00000                      -0.00005
                       1.00000                       0.00000                      -0.00004
                       1.00000                      -0.00000                       0.00000
        </DataArray>
        <DataArray type="Float32" Name="OrientationY" NumberOfComponents="3" format="ascii">
                       0.00000                       1.00000                       0.00000
                       0.00000                       1.00000                       0.00000
                       0.00000                       1.00000                       0.00000
                       0.00000                       1.00000                       0.00000
                       0.00000                       1.00000                       0.00000
                       0.00000                       1.00000                       0.00000
                       0.00000                       1.00000                       0.00000
                       0.00000                       1.00000                       0.00000
                       0.00000                       1.00000                       0.00000
                       0.00000                       1.00000                       0.00000
                       0.00000                       1.00000                       0.00000
                       0.00000                       1.00000                       0.00001
                       0.00000                       1.00000                       0.00001
                       0.00000                       1.00000                       0.00001
                       0.00000                       1.00000                       0.00001
                       0.00000                       1.00000                       0.00001
                       0.00000                       1.00000                       0.00001
                       0.00000                       1.00000                       0.00001
                       0.00000                       1.00000                       0.00001
                       0.00000                       1.00000                       0.00001
                       0.00000                       1.00000                       0.00001
                      -0.00000                       1.00000                      -0.00000
        </DataArray>
        <DataArray type="Float32" Name="OrientationZ" NumberOfComponents="3" format="ascii">
                       0.00001                      -0.00000                       1.00000
                       0.00002                      -0.00000                       1.00000
                       0.00004                      -0.00000                       1.00000
                       0.00006                      -0.00000                       1.00000
                       0.00007                      -0.00000                       1.00000
                       0.00008                      -0.00000                       1.00000
                       0.00009                      -0.00000                       1.00000
                       0.00010                      -0.00000                       1.00000
                       0.00010                      -0.00000                       1.00000
                       0.00010                      -0.00000                       1.00000
                       0.00010                      -0.00000                       1.00000
                       0.00010                      -0.00001                       1.00000
                       0.00010                      -0.00001                       1.00000
                       0.00010                      -0.00001                       1.00000
                       0.00009                      -0.00001                       1.00000
                       0.00008                      -0.00001                       1.00000
                       0.00008                      -0.00001                       1.00000
                       0.00007                      -0.00001                       1.00000
                       0.00006                      -0.00001                       1.00000
                       0.00005                      -0.00001                       1.00000
                       0.00004                      -0.00001                       1.00000
                       0.00000                      -0.00000                       1.00000
        </DataArray>
      </PointData>
      <Lines>
        <DataArray type="Int32" Name="connectivity" format="ascii">
      0      1
      1      2
      2      3
      3      4
      4      5
      5      6
      6      7
      7      8
      8      9
      9     10
     10     11
     11     12
     12     13
     13     14
     14     15
     15     16
     16     17
     17     18
     18     19
     19     20
     21      0
        </DataArray>
        <DataArray type="Int32" Name="offsets" format="ascii">
      2
      4
      6
      8
     10
     12
     14
     16
     18
     20
     22
     24
     26
     28
     30
     32
     34
     36
     38
     40
     42
        </DataArray>
      </Lines>
    </Piece>
  </PolyData>
</VTKFile>
