<?xml version="1.0"?>
<VTKFile type="PolyData" version="0.1" byte_order="LittleEndian">
  <PolyData>
    <Piece NumberOfPoints="     19" NumberOfVerts="  0" NumberOfLines="     18"
           NumberOfStrips="  0" NumberOfPolys="      0">
      <Points>
        <DataArray type="Float32" NumberOfComponents="3" format="ascii">
                      -4.99419                       1.36788                      90.61470
                      -5.00552                       2.61364                      91.17668
                      -5.04278                       5.06612                      92.38734
                      -5.08684                       7.50074                      93.63816
                      -5.14582                      10.53431                      95.22430
                      -5.17482                      14.23659                      96.99017
                      -5.18956                      17.99426                      98.63186
                      -5.20590                      21.75458                     100.26731
                      -5.22127                      25.51820                     101.89504
                      -5.23605                      29.28413                     103.51724
                      -5.25092                      33.05063                     105.13786
                      -5.26494                      36.81812                     106.75600
                      -5.27846                      40.58637                     108.37221
                      -5.29190                      44.35518                     109.98699
                      -5.30331                      48.12443                     111.60066
                      -5.31107                      51.26584                     112.94460
                      -5.31694                      53.78227                     114.01204
                      -5.32712                      56.32083                     115.02874
                      -5.32912                      57.57354                     115.57495
        </DataArray>
      </Points>
      <PointData>
        <DataArray type="Float32" Name="TranslationalVelocity" NumberOfComponents="3" format="ascii">
                       0.00339                      -0.05063                       0.11172
                       0.01229                      -0.09665                       0.21393
                       0.02980                      -0.19573                       0.41516
                       0.04717                      -0.29807                       0.61496
                       0.06880                      -0.42787                       0.86397
                       0.09522                      -0.57268                       1.16797
                       0.12205                      -0.70745                       1.47662
                       0.14888                      -0.84173                       1.78558
                       0.17573                      -0.97542                       2.09489
                       0.20258                      -1.10868                       2.40447
                       0.22941                      -1.24184                       2.71414
                       0.25623                      -1.37481                       3.02393
                       0.28304                      -1.50764                       3.33381
                       0.30982                      -1.64036                       3.64376
                       0.33659                      -1.77300                       3.95375
                       0.35889                      -1.88349                       4.21211
                       0.37674                      -1.97125                       4.41909
                       0.39476                      -2.05481                       4.62789
                       0.40364                      -2.09972                       4.73094
        </DataArray>
        <DataArray type="Float32" Name="RotationalVelocity" NumberOfComponents="3" format="ascii">
                       0.08204                      -0.00011                      -0.00720
                       0.08204                      -0.00011                      -0.00720
                       0.08206                      -0.00011                      -0.00719
                       0.08207                      -0.00011                      -0.00719
                       0.08209                      -0.00011                      -0.00719
                       0.08212                      -0.00012                      -0.00719
                       0.08215                      -0.00012                      -0.00719
                       0.08217                      -0.00012                      -0.00719
                       0.08219                      -0.00012                      -0.00718
                       0.08221                      -0.00013                      -0.00718
                       0.08222                      -0.00013                      -0.00718
                       0.08223                      -0.00014                      -0.00718
                       0.08223                      -0.00014                      -0.00717
                       0.08224                      -0.00015                      -0.00717
                       0.08224                      -0.00016                      -0.00717
                       0.08225                      -0.00016                      -0.00717
                       0.08225                      -0.00016                      -0.00716
                       0.08225                      -0.00017                      -0.00716
                       0.08225                      -0.00017                      -0.00717
        </DataArray>
        <DataArray type="Float32" Name="TranslationalAcceleration" NumberOfComponents="3" format="ascii">
                      -0.02445                      -0.01040                      -0.00056
                      -0.00742                      -0.01357                       0.00057
                      -0.01827                      -0.03909                       0.00138
                      -0.02483                      -0.06291                       0.00187
                      -0.02906                      -0.09113                       0.00249
                      -0.03058                      -0.12319                       0.00463
                      -0.03070                      -0.15432                       0.00808
                      -0.03123                      -0.18540                       0.01170
                      -0.03306                      -0.21684                       0.01542
                      -0.03652                      -0.24874                       0.01920
                      -0.04145                      -0.28103                       0.02301
                      -0.04742                      -0.31350                       0.02685
                      -0.05384                      -0.34592                       0.03073
                      -0.06016                      -0.37809                       0.03463
                      -0.06597                      -0.40994                       0.03853
                      -0.07036                      -0.43633                       0.04175
                      -0.07366                      -0.45747                       0.04437
                      -0.07701                      -0.47880                       0.04742
                      -0.07885                      -0.48965                       0.04861
        </DataArray>
        <DataArray type="Float32" Name="OrientationX" NumberOfComponents="3" format="ascii">
                       0.98838                      -0.05495                       0.14170
                       0.98838                      -0.05495                       0.14170
                       0.98838                      -0.05493                       0.14171
                       0.98838                      -0.05491                       0.14172
                       0.98838                      -0.05489                       0.14175
                       0.99272                      -0.04201                       0.11290
                       0.99522                      -0.03279                       0.09201
                       0.99697                      -0.02484                       0.07369
                       0.99839                      -0.01653                       0.05427
                       0.99938                      -0.00809                       0.03423
                       0.99988                      -0.00025                       0.01522
                       0.99997                       0.00741                      -0.00366
                       0.99968                       0.01421                      -0.02082
                       0.99924                       0.01913                      -0.03388
                       0.99862                       0.02392                      -0.04673
                       0.99796                       0.02795                      -0.05746
                       0.99738                       0.03094                      -0.06543
                       0.99704                       0.03241                      -0.06972
                       0.99704                       0.03225                      -0.06974
        </DataArray>
        <DataArray type="Float32" Name="OrientationY" NumberOfComponents="3" format="ascii">
                       0.15177                       0.40540                      -0.90145
                       0.15177                       0.40523                      -0.90153
                       0.15178                       0.40479                      -0.90172
                       0.15179                       0.40424                      -0.90197
                       0.15181                       0.40346                      -0.90231
                       0.12023                       0.40401                      -0.90682
                       0.09740                       0.40388                      -0.90961
                       0.07744                       0.40353                      -0.91168
                       0.05633                       0.40314                      -0.91340
                       0.03459                       0.40268                      -0.91469
                       0.01404                       0.40216                      -0.91546
                      -0.00633                       0.40159                      -0.91580
                      -0.02477                       0.40098                      -0.91575
                      -0.03871                       0.40043                      -0.91551
                      -0.05240                       0.39988                      -0.91507
                      -0.06384                       0.39941                      -0.91455
                      -0.07234                       0.39905                      -0.91407
                      -0.07686                       0.39883                      -0.91380
                      -0.07682                       0.39881                      -0.91381
        </DataArray>
        <DataArray type="Float32" Name="OrientationZ" NumberOfComponents="3" format="ascii">
                      -0.00791                       0.91249                       0.40903
                      -0.00788                       0.91256                       0.40886
                      -0.00783                       0.91276                       0.40843
                      -0.00776                       0.91300                       0.40788
                      -0.00766                       0.91335                       0.40711
                      -0.00752                       0.91379                       0.40612
                      -0.00733                       0.91422                       0.40514
                      -0.00709                       0.91463                       0.40423
                      -0.00678                       0.91499                       0.40342
                      -0.00638                       0.91530                       0.40271
                      -0.00589                       0.91557                       0.40212
                      -0.00532                       0.91579                       0.40162
                      -0.00466                       0.91598                       0.40121
                      -0.00394                       0.91613                       0.40086
                      -0.00320                       0.91626                       0.40058
                      -0.00261                       0.91635                       0.40038
                      -0.00217                       0.91641                       0.40025
                      -0.00181                       0.91645                       0.40014
                      -0.00166                       0.91647                       0.40011
        </DataArray>
        <DataArray type="Float32" Name="Force" NumberOfComponents="3" format="ascii">
                      69.55505                       0.93774                      -0.74727
                      69.59442                       1.33423                      -1.63755
                      75.88729                       2.31636                      -3.72498
                      57.61212                       2.41080                      -4.29922
                     334.28260                     -32.61237                      78.88837
                     317.50569                     -24.44208                      60.17629
                     313.47123                     -21.26003                      52.80038
                     278.62510                     -15.60245                      39.36499
                     250.99036                     -10.09401                      26.38985
                     241.27911                      -7.64260                      20.50356
                     224.46647                      -3.55217                      10.84179
                     214.31633                      -1.72094                       6.30027
                     188.02101                       0.41850                       0.90542
                     177.09413                       1.28281                      -1.45324
                     165.70380                       2.02818                      -3.51712
                     155.69516                       2.59124                      -5.06898
                     143.07361                       2.84559                      -5.85093
                      99.09298                       2.13450                      -4.50870
                      99.95957                       2.14247                      -4.56128
        </DataArray>
        <DataArray type="Float32" Name="Moment" NumberOfComponents="3" format="ascii">
                       0.00000                       0.00000                       0.00000
                       0.00000                       0.00000                       0.00000
                       0.00000                       0.00000                       0.00000
                       0.00000                       0.00000                       0.00000
                       2.37288                    -288.80500                    -129.44657
                       2.36197                    -296.59806                    -132.93296
                       2.10142                    -274.09350                    -122.83945
                       1.86395                    -254.77989                    -114.17590
                       1.57095                    -227.75027                    -102.05462
                       1.29448                    -202.26984                     -90.62803
                       0.95711                    -164.62882                     -73.75432
                       0.74508                    -145.00319                     -64.95337
                       0.54858                    -125.17350                     -56.06247
                       0.38424                    -107.66395                     -48.21264
                       0.24986                     -91.30794                     -40.88165
                       0.16243                     -78.54400                     -35.16219
                       0.10277                     -64.90821                     -29.05503
                       0.03578                     -30.45330                     -13.63080
                       0.03093                     -30.62915                     -13.70906
        </DataArray>
      </PointData>
      <Lines>
        <DataArray type="Int32" Name="connectivity" format="ascii">
      0      1
      1      2
      2      3
      3      4
      4      5
      5      6
      6      7
      7      8
      8      9
      9     10
     10     11
     11     12
     12     13
     13     14
     14     15
     15     16
     16     17
     17     18
        </DataArray>
        <DataArray type="Int32" Name="offsets" format="ascii">
      2
      4
      6
      8
     10
     12
     14
     16
     18
     20
     22
     24
     26
     28
     30
     32
     34
     36
        </DataArray>
      </Lines>
    </Piece>
  </PolyData>
</VTKFile>
