<?xml version="1.0"?>
<VTKFile type="PolyData" version="0.1" byte_order="LittleEndian">
  <PolyData>
    <Piece NumberOfPoints="     19" NumberOfVerts="  0" NumberOfLines="     18"
           NumberOfStrips="  0" NumberOfPolys="      0">
      <Points>
        <DataArray type="Float32" NumberOfComponents="3" format="ascii">
                      -5.08860                       1.45616                      89.65401
                      -5.17655                       2.78380                      89.34172
                      -5.36657                       5.46018                      88.80988
                      -5.56317                       8.14648                      88.32079
                      -5.81277                      11.51022                      87.73318
                      -6.07144                      15.51428                      86.88027
                      -6.31668                      19.48728                      85.89463
                      -6.56371                      23.45843                      84.90223
                      -6.81006                      27.42746                      83.90145
                      -7.05612                      31.39492                      82.89469
                      -7.30263                      35.36180                      81.88617
                      -7.54871                      39.32795                      80.87496
                      -7.79474                      43.29351                      79.86166
                      -8.04120                      47.25859                      78.84686
                      -8.28617                      51.22341                      77.83084
                      -8.48897                      54.52729                      76.98329
                      -8.65118                      57.16830                      76.29711
                      -8.81816                      59.79566                      75.55729
                      -8.89845                      61.11943                      75.22744
        </DataArray>
      </Points>
      <PointData>
        <DataArray type="Float32" Name="TranslationalVelocity" NumberOfComponents="3" format="ascii">
                       0.02190                       0.01538                       0.06595
                       0.02699                       0.02959                       0.12495
                       0.03730                       0.05395                       0.24385
                       0.04772                       0.07643                       0.36317
                       0.06086                       0.10350                       0.51254
                       0.07664                       0.14239                       0.69027
                       0.09254                       0.18711                       0.86657
                       0.10879                       0.23215                       1.04275
                       0.12550                       0.27758                       1.21882
                       0.14280                       0.32331                       1.39482
                       0.16079                       0.36916                       1.57079
                       0.17959                       0.41519                       1.74676
                       0.19928                       0.46136                       1.92272
                       0.21993                       0.50766                       2.09867
                       0.24157                       0.55408                       2.27461
                       0.26037                       0.59283                       2.42121
                       0.27587                       0.62422                       2.53836
                       0.29169                       0.65803                       2.65486
                       0.29979                       0.67314                       2.71354
        </DataArray>
        <DataArray type="Float32" Name="RotationalVelocity" NumberOfComponents="3" format="ascii">
                       0.04442                       0.00025                      -0.00389
                       0.04442                       0.00025                      -0.00389
                       0.04441                       0.00024                      -0.00391
                       0.04440                       0.00024                      -0.00393
                       0.04439                       0.00023                      -0.00396
                       0.04437                       0.00022                      -0.00402
                       0.04436                       0.00020                      -0.00409
                       0.04436                       0.00018                      -0.00419
                       0.04436                       0.00016                      -0.00431
                       0.04436                       0.00013                      -0.00446
                       0.04436                       0.00009                      -0.00464
                       0.04437                       0.00005                      -0.00484
                       0.04437                      -0.00000                      -0.00507
                       0.04437                      -0.00006                      -0.00530
                       0.04437                      -0.00011                      -0.00554
                       0.04437                      -0.00016                      -0.00572
                       0.04436                      -0.00019                      -0.00585
                       0.04435                      -0.00022                      -0.00595
                       0.04434                      -0.00023                      -0.00599
        </DataArray>
        <DataArray type="Float32" Name="TranslationalAcceleration" NumberOfComponents="3" format="ascii">
                       0.01455                      -0.00263                       0.01293
                       0.00437                      -0.00234                       0.00907
                       0.01088                      -0.00680                       0.02514
                       0.01505                      -0.01111                       0.03879
                       0.01809                      -0.01620                       0.05359
                       0.01968                      -0.02121                       0.06905
                       0.02064                      -0.02540                       0.08314
                       0.02245                      -0.02967                       0.09631
                       0.02593                      -0.03419                       0.10878
                       0.03164                      -0.03906                       0.12047
                       0.03987                      -0.04429                       0.13109
                       0.05077                      -0.04984                       0.14032
                       0.06443                      -0.05564                       0.14782
                       0.08092                      -0.06160                       0.15342
                       0.10045                      -0.06769                       0.15716
                       0.11934                      -0.07285                       0.15908
                       0.13626                      -0.07702                       0.16022
                       0.15497                      -0.08118                       0.16147
                       0.16523                      -0.08333                       0.16216
        </DataArray>
        <DataArray type="Float32" Name="OrientationX" NumberOfComponents="3" format="ascii">
                       0.98715                       0.09551                       0.12810
                       0.98715                       0.09552                       0.12810
                       0.98715                       0.09555                       0.12810
                       0.98714                       0.09559                       0.12809
                       0.98714                       0.09564                       0.12809
                       0.99131                       0.08854                       0.09730
                       0.99369                       0.08329                       0.07506
                       0.99535                       0.07858                       0.05565
                       0.99668                       0.07346                       0.03515
                       0.99758                       0.06807                       0.01408
                       0.99801                       0.06282                      -0.00581
                       0.99802                       0.05748                      -0.02549
                       0.99768                       0.05251                      -0.04326
                       0.99721                       0.04854                      -0.05665
                       0.99656                       0.04459                      -0.06980
                       0.99588                       0.04130                      -0.08079
                       0.99528                       0.03886                      -0.08894
                       0.99494                       0.03744                      -0.09325
                       0.99495                       0.03733                      -0.09319
        </DataArray>
        <DataArray type="Float32" Name="OrientationY" NumberOfComponents="3" format="ascii">
                       0.14642                      -0.21964                      -0.96453
                       0.14643                      -0.21983                      -0.96449
                       0.14647                      -0.22032                      -0.96437
                       0.14651                      -0.22094                      -0.96422
                       0.14658                      -0.22181                      -0.96401
                       0.11512                      -0.22587                      -0.96733
                       0.09239                      -0.22895                      -0.96904
                       0.07252                      -0.23160                      -0.97010
                       0.05150                      -0.23414                      -0.97084
                       0.02984                      -0.23649                      -0.97118
                       0.00936                      -0.23851                      -0.97110
                      -0.01095                      -0.24029                      -0.97064
                      -0.02933                      -0.24175                      -0.96990
                      -0.04324                      -0.24281                      -0.96911
                      -0.05690                      -0.24374                      -0.96817
                      -0.06833                      -0.24442                      -0.96726
                      -0.07681                      -0.24488                      -0.96651
                      -0.08132                      -0.24514                      -0.96607
                      -0.08129                      -0.24516                      -0.96607
        </DataArray>
        <DataArray type="Float32" Name="OrientationZ" NumberOfComponents="3" format="ascii">
                      -0.06399                       0.97089                      -0.23081
                      -0.06397                       0.97085                      -0.23099
                      -0.06392                       0.97074                      -0.23149
                      -0.06386                       0.97059                      -0.23210
                      -0.06379                       0.97039                      -0.23298
                      -0.06367                       0.97013                      -0.23410
                      -0.06353                       0.96987                      -0.23520
                      -0.06334                       0.96963                      -0.23623
                      -0.06309                       0.96942                      -0.23715
                      -0.06278                       0.96925                      -0.23794
                      -0.06239                       0.96911                      -0.23862
                      -0.06192                       0.96900                      -0.23918
                      -0.06138                       0.96892                      -0.23965
                      -0.06080                       0.96886                      -0.24004
                      -0.06019                       0.96881                      -0.24036
                      -0.05970                       0.96879                      -0.24059
                      -0.05934                       0.96877                      -0.24074
                      -0.05903                       0.96877                      -0.24085
                      -0.05891                       0.96876                      -0.24089
        </DataArray>
        <DataArray type="Float32" Name="Force" NumberOfComponents="3" format="ascii">
                      68.51692                       4.13910                      -1.58466
                      68.15946                       4.00188                      -2.05149
                      74.24113                       4.15903                      -3.04602
                      57.04271                       3.00743                      -3.10481
                     305.85021                      36.63539                      69.82113
                     287.64119                      30.90402                      50.98943
                     274.45504                      27.91787                      42.33272
                     243.69522                      23.08833                      30.72605
                     219.55717                      18.77102                      19.45160
                     205.25529                      16.42885                      13.81577
                     191.55382                      13.53177                       5.69475
                     178.13373                      11.65170                       1.77375
                     158.27688                       9.41840                      -1.95738
                     145.18810                       8.07751                      -3.76779
                     132.23004                       6.85117                      -5.19134
                     121.51298                       5.91083                      -6.11912
                     109.64734                       5.07680                      -6.42406
                      74.50435                       3.34150                      -4.71834
                      74.43150                       3.32414                      -4.73221
        </DataArray>
        <DataArray type="Float32" Name="Moment" NumberOfComponents="3" format="ascii">
                       0.00000                       0.00000                       0.00000
                       0.00000                       0.00000                       0.00000
                       0.00000                       0.00000                       0.00000
                       0.00000                       0.00000                       0.00000
                      20.35440                    -310.73245                      73.88033
                      20.50240                    -314.02688                      74.66955
                      18.56542                    -285.43823                      67.87789
                      16.88333                    -260.72059                      62.00649
                      14.75769                    -229.07819                      54.48777
                      12.78363                    -199.65508                      47.49616
                      10.19490                    -160.37638                      38.15857
                       8.72219                    -138.35914                      32.92638
                       7.30389                    -116.95664                      27.83911
                       6.07738                     -98.31821                      23.40809
                       4.97933                     -81.41225                      19.38768
                       4.16067                     -68.61463                      16.34317
                       3.35996                     -55.75939                      13.28306
                       1.54180                     -25.72330                       6.12855
                       1.53473                     -25.66076                       6.11394
        </DataArray>
      </PointData>
      <Lines>
        <DataArray type="Int32" Name="connectivity" format="ascii">
      0      1
      1      2
      2      3
      3      4
      4      5
      5      6
      6      7
      7      8
      8      9
      9     10
     10     11
     11     12
     12     13
     13     14
     14     15
     15     16
     16     17
     17     18
        </DataArray>
        <DataArray type="Int32" Name="offsets" format="ascii">
      2
      4
      6
      8
     10
     12
     14
     16
     18
     20
     22
     24
     26
     28
     30
     32
     34
     36
        </DataArray>
      </Lines>
    </Piece>
  </PolyData>
</VTKFile>
