<?xml version="1.0"?>
<VTKFile type="PolyData" version="0.1" byte_order="LittleEndian">
  <PolyData>
    <Piece NumberOfPoints="     22" NumberOfVerts="  0" NumberOfLines="     21"
           NumberOfStrips="  0" NumberOfPolys="      0">
      <Points>
        <DataArray type="Float32" NumberOfComponents="3" format="ascii">
                       0.00001                      -0.00000                       2.19000
                       0.00006                      -0.00000                       6.57000
                       0.00019                      -0.00000                      10.95000
                       0.00037                      -0.00000                      15.33000
                       0.00062                      -0.00000                      19.71000
                       0.00091                      -0.00000                      24.09000
                       0.00125                      -0.00001                      28.47000
                       0.00162                      -0.00001                      32.85000
                       0.00201                      -0.00001                      37.23000
                       0.00241                      -0.00002                      41.61000
                       0.00280                      -0.00003                      45.99000
                       0.00320                      -0.00004                      50.37000
                       0.00357                      -0.00005                      54.75000
                       0.00393                      -0.00007                      59.13000
                       0.00427                      -0.00008                      63.51000
                       0.00458                      -0.00011                      67.89000
                       0.00486                      -0.00013                      72.27000
                       0.00511                      -0.00016                      76.65000
                       0.00532                      -0.00019                      81.03000
                       0.00548                      -0.00022                      85.41000
                       0.00554                      -0.00023                      87.60000
                       0.00000                       0.00000                       0.00000
        </DataArray>
      </Points>
      <PointData>
        <DataArray type="Float32" Name="TranslationalVelocity" NumberOfComponents="3" format="ascii">
                      -0.00002                       0.00000                       0.00000
                      -0.00015                       0.00001                       0.00000
                      -0.00038                       0.00004                       0.00000
                      -0.00071                       0.00006                       0.00000
                      -0.00108                       0.00010                       0.00000
                      -0.00145                       0.00013                       0.00000
                      -0.00177                       0.00017                       0.00000
                      -0.00198                       0.00020                       0.00000
                      -0.00201                       0.00023                       0.00000
                      -0.00180                       0.00024                       0.00000
                      -0.00127                       0.00025                       0.00000
                      -0.00035                       0.00023                      -0.00000
                       0.00101                       0.00020                      -0.00000
                       0.00286                       0.00015                      -0.00000
                       0.00525                       0.00007                      -0.00000
                       0.00817                      -0.00004                      -0.00000
                       0.01162                      -0.00018                      -0.00000
                       0.01554                      -0.00034                      -0.00000
                       0.01984                      -0.00052                      -0.00000
                       0.02438                      -0.00073                      -0.00000
                       0.02667                      -0.00083                      -0.00000
                       0.00000                      -0.00000                       0.00000
        </DataArray>
        <DataArray type="Float32" Name="RotationalVelocity" NumberOfComponents="3" format="ascii">
                      -0.00000                      -0.00002                       0.00000
                      -0.00000                      -0.00004                       0.00000
                      -0.00001                      -0.00007                       0.00000
                      -0.00001                      -0.00008                       0.00000
                      -0.00001                      -0.00009                       0.00000
                      -0.00001                      -0.00008                       0.00000
                      -0.00001                      -0.00006                       0.00000
                      -0.00001                      -0.00003                       0.00000
                      -0.00000                       0.00002                       0.00000
                      -0.00000                       0.00008                       0.00000
                       0.00000                       0.00016                       0.00000
                       0.00000                       0.00026                       0.00000
                       0.00001                       0.00037                       0.00000
                       0.00002                       0.00048                       0.00000
                       0.00002                       0.00061                       0.00000
                       0.00003                       0.00073                       0.00000
                       0.00003                       0.00084                       0.00000
                       0.00004                       0.00094                       0.00000
                       0.00004                       0.00102                       0.00000
                       0.00005                       0.00105                       0.00000
                       0.00005                       0.00105                       0.00000
                       0.00000                      -0.00000                       0.00000
        </DataArray>
        <DataArray type="Float32" Name="TranslationalAcceleration" NumberOfComponents="3" format="ascii">
                       0.00019                      -0.00003                      -0.00000
                       0.00175                      -0.00024                      -0.00000
                       0.00492                      -0.00063                      -0.00000
                       0.00961                      -0.00116                      -0.00000
                       0.01563                      -0.00178                      -0.00000
                       0.02266                      -0.00248                      -0.00000
                       0.03034                      -0.00323                      -0.00000
                       0.03828                      -0.00398                      -0.00000
                       0.04605                      -0.00470                      -0.00000
                       0.05322                      -0.00536                      -0.00000
                       0.05939                      -0.00591                      -0.00000
                       0.06418                      -0.00632                      -0.00001
                       0.06727                      -0.00654                      -0.00001
                       0.06840                      -0.00653                      -0.00001
                       0.06739                      -0.00625                      -0.00001
                       0.06412                      -0.00569                      -0.00001
                       0.05860                      -0.00483                      -0.00001
                       0.05091                      -0.00368                      -0.00002
                       0.04123                      -0.00226                      -0.00002
                       0.02985                      -0.00062                      -0.00002
                       0.02365                       0.00024                      -0.00003
                       0.00000                      -0.00000                       0.00000
        </DataArray>
        <DataArray type="Float32" Name="RotationalAcceleration" NumberOfComponents="3" format="ascii">
                       0.00003                       0.00017                       0.00000
                       0.00007                       0.00054                       0.00000
                       0.00011                       0.00090                       0.00000
                       0.00013                       0.00123                       0.00000
                       0.00015                       0.00150                       0.00000
                       0.00017                       0.00169                       0.00000
                       0.00017                       0.00180                       0.00000
                       0.00017                       0.00181                       0.00000
                       0.00016                       0.00172                       0.00000
                       0.00014                       0.00154                       0.00000
                       0.00011                       0.00126                       0.00000
                       0.00007                       0.00091                       0.00000
                       0.00002                       0.00049                       0.00000
                      -0.00003                       0.00002                       0.00000
                      -0.00009                      -0.00049                       0.00000
                      -0.00016                      -0.00100                       0.00000
                      -0.00023                      -0.00151                       0.00000
                      -0.00030                      -0.00199                       0.00000
                      -0.00035                      -0.00242                       0.00000
                      -0.00039                      -0.00276                       0.00000
                      -0.00040                      -0.00290                       0.00000
                       0.00000                      -0.00000                       0.00000
        </DataArray>
        <DataArray type="Float32" Name="OrientationX" NumberOfComponents="3" format="ascii">
                       1.00000                       0.00000                      -0.00001
                       1.00000                       0.00000                      -0.00002
                       1.00000                       0.00000                      -0.00004
                       1.00000                       0.00000                      -0.00005
                       1.00000                       0.00000                      -0.00006
                       1.00000                       0.00000                      -0.00007
                       1.00000                       0.00000                      -0.00008
                       1.00000                       0.00000                      -0.00009
                       1.00000                       0.00000                      -0.00009
                       1.00000                       0.00000                      -0.00009
                       1.00000                       0.00000                      -0.00009
                       1.00000                       0.00000                      -0.00009
                       1.00000                       0.00000                      -0.00008
                       1.00000                       0.00000                      -0.00008
                       1.00000                       0.00000                      -0.00007
                       1.00000                       0.00000                      -0.00007
                       1.00000                       0.00000                      -0.00006
                       1.00000                       0.00000                      -0.00005
                       1.00000                       0.00000                      -0.00004
                       1.00000                       0.00000                      -0.00003
                       1.00000                       0.00000                      -0.00002
                       1.00000                      -0.00000                       0.00000
        </DataArray>
        <DataArray type="Float32" Name="OrientationY" NumberOfComponents="3" format="ascii">
                       0.00000                       1.00000                       0.00000
                       0.00000                       1.00000                       0.00000
                       0.00000                       1.00000                       0.00000
                       0.00000                       1.00000                       0.00000
                       0.00000                       1.00000                       0.00000
                       0.00000                       1.00000                       0.00000
                       0.00000                       1.00000                       0.00000
                       0.00000                       1.00000                       0.00000
                       0.00000                       1.00000                       0.00000
                       0.00000                       1.00000                       0.00000
                       0.00000                       1.00000                       0.00000
                       0.00000                       1.00000                       0.00000
                       0.00000                       1.00000                       0.00000
                       0.00000                       1.00000                       0.00000
                       0.00000                       1.00000                       0.00000
                       0.00000                       1.00000                       0.00001
                       0.00000                       1.00000                       0.00001
                       0.00000                       1.00000                       0.00001
                       0.00000                       1.00000                       0.00001
                       0.00000                       1.00000                       0.00001
                       0.00000                       1.00000                       0.00001
                      -0.00000                       1.00000                      -0.00000
        </DataArray>
        <DataArray type="Float32" Name="OrientationZ" NumberOfComponents="3" format="ascii">
                       0.00001                      -0.00000                       1.00000
                       0.00002                      -0.00000                       1.00000
                       0.00004                      -0.00000                       1.00000
                       0.00005                      -0.00000                       1.00000
                       0.00006                      -0.00000                       1.00000
                       0.00007                      -0.00000                       1.00000
                       0.00008                      -0.00000                       1.00000
                       0.00009                      -0.00000                       1.00000
                       0.00009                      -0.00000                       1.00000
                       0.00009                      -0.00000                       1.00000
                       0.00009                      -0.00000                       1.00000
                       0.00009                      -0.00000                       1.00000
                       0.00008                      -0.00000                       1.00000
                       0.00008                      -0.00000                       1.00000
                       0.00007                      -0.00000                       1.00000
                       0.00007                      -0.00001                       1.00000
                       0.00006                      -0.00001                       1.00000
                       0.00005                      -0.00001                       1.00000
                       0.00004                      -0.00001                       1.00000
                       0.00003                      -0.00001                       1.00000
                       0.00002                      -0.00001                       1.00000
                       0.00000                      -0.00000                       1.00000
        </DataArray>
      </PointData>
      <Lines>
        <DataArray type="Int32" Name="connectivity" format="ascii">
      0      1
      1      2
      2      3
      3      4
      4      5
      5      6
      6      7
      7      8
      8      9
      9     10
     10     11
     11     12
     12     13
     13     14
     14     15
     15     16
     16     17
     17     18
     18     19
     19     20
     21      0
        </DataArray>
        <DataArray type="Int32" Name="offsets" format="ascii">
      2
      4
      6
      8
     10
     12
     14
     16
     18
     20
     22
     24
     26
     28
     30
     32
     34
     36
     38
     40
     42
        </DataArray>
      </Lines>
    </Piece>
  </PolyData>
</VTKFile>
