<?xml version="1.0"?>
<VTKFile type="PolyData" version="0.1" byte_order="LittleEndian">
  <PolyData>
    <Piece NumberOfPoints="     19" NumberOfVerts="  0" NumberOfLines="     18"
           NumberOfStrips="  0" NumberOfPolys="      0">
      <Points>
        <DataArray type="Float32" NumberOfComponents="3" format="ascii">
                      -5.17668                      -0.18909                      88.52595
                      -5.35526                      -0.35727                      87.18142
                      -5.73535                      -0.59941                      84.48346
                      -6.12595                      -0.79679                      81.78118
                      -6.61989                      -1.01651                      78.40057
                      -7.15702                      -1.42175                      74.35461
                      -7.66680                      -1.95535                      70.32140
                      -8.17637                      -2.49072                      66.28839
                      -8.68303                      -3.02970                      62.25544
                      -9.18736                      -3.57043                      58.22240
                      -9.69050                      -4.10936                      54.18898
                     -10.19155                      -4.64807                      50.15527
                     -10.69108                      -5.18665                      46.12134
                     -11.18979                      -5.72515                      42.08730
                     -11.68604                      -6.26350                      38.05295
                     -12.09771                      -6.71206                      34.69074
                     -12.42605                      -7.07868                      32.00191
                     -12.75387                      -7.49984                      29.31989
                     -12.91852                      -7.66903                      27.97383
        </DataArray>
      </Points>
      <PointData>
        <DataArray type="Float32" Name="TranslationalVelocity" NumberOfComponents="3" format="ascii">
                      -0.00049                       0.12040                      -0.01514
                      -0.00171                       0.23063                      -0.02876
                      -0.00350                       0.45189                      -0.04837
                      -0.00498                       0.67343                      -0.06435
                      -0.00665                       0.95040                      -0.08213
                      -0.00969                       1.28116                      -0.11490
                      -0.01367                       1.61031                      -0.15800
                      -0.01770                       1.93907                      -0.20118
                      -0.02180                       2.26747                      -0.24459
                      -0.02595                       2.59556                      -0.28809
                      -0.03013                       2.92341                      -0.33141
                      -0.03435                       3.25108                      -0.37467
                      -0.03861                       3.57860                      -0.41788
                      -0.04292                       3.90601                      -0.46107
                      -0.04729                       4.23335                      -0.50422
                      -0.05098                       4.50608                      -0.54016
                      -0.05403                       4.72414                      -0.56952
                      -0.05751                       4.94160                      -0.60325
                      -0.05897                       5.05073                      -0.61679
        </DataArray>
        <DataArray type="Float32" Name="RotationalVelocity" NumberOfComponents="3" format="ascii">
                       0.08106                       0.00003                      -0.00711
                       0.08104                       0.00002                      -0.00711
                       0.08100                       0.00003                      -0.00710
                       0.08095                       0.00003                      -0.00710
                       0.08088                       0.00004                      -0.00709
                       0.08078                       0.00004                      -0.00708
                       0.08069                       0.00006                      -0.00707
                       0.08061                       0.00007                      -0.00707
                       0.08053                       0.00008                      -0.00706
                       0.08047                       0.00009                      -0.00706
                       0.08041                       0.00010                      -0.00706
                       0.08037                       0.00011                      -0.00707
                       0.08033                       0.00012                      -0.00707
                       0.08030                       0.00013                      -0.00707
                       0.08028                       0.00015                      -0.00708
                       0.08026                       0.00016                      -0.00708
                       0.08025                       0.00017                      -0.00708
                       0.08024                       0.00019                      -0.00708
                       0.08024                       0.00019                      -0.00708
        </DataArray>
        <DataArray type="Float32" Name="TranslationalAcceleration" NumberOfComponents="3" format="ascii">
                      -0.02686                       0.00703                       0.00663
                      -0.00665                       0.00811                       0.01021
                      -0.01541                       0.02284                       0.02981
                      -0.01929                       0.03604                       0.04855
                      -0.01954                       0.05136                       0.07104
                      -0.01586                       0.06965                       0.09616
                      -0.01038                       0.08843                       0.11996
                      -0.00478                       0.10737                       0.14361
                       0.00001                       0.12674                       0.16740
                       0.00367                       0.14660                       0.19142
                       0.00630                       0.16688                       0.21566
                       0.00824                       0.18747                       0.23999
                       0.00992                       0.20822                       0.26426
                       0.01167                       0.22897                       0.28839
                       0.01353                       0.24964                       0.31236
                       0.01488                       0.26681                       0.33228
                       0.01548                       0.28065                       0.34825
                       0.01513                       0.29497                       0.36413
                       0.01445                       0.30198                       0.37240
        </DataArray>
        <DataArray type="Float32" Name="OrientationX" NumberOfComponents="3" format="ascii">
                       0.96229                       0.22303                      -0.15575
                       0.96230                       0.22303                      -0.15570
                       0.96232                       0.22305                      -0.15555
                       0.96234                       0.22308                      -0.15534
                       0.96238                       0.22314                      -0.15500
                       0.96958                       0.19227                      -0.15151
                       0.97418                       0.16993                      -0.14868
                       0.97779                       0.15038                      -0.14600
                       0.98118                       0.12967                      -0.14309
                       0.98421                       0.10832                      -0.14000
                       0.98666                       0.08810                      -0.13692
                       0.98867                       0.06804                      -0.13377
                       0.99016                       0.04985                      -0.13078
                       0.99108                       0.03611                      -0.12828
                       0.99180                       0.02257                      -0.12583
                       0.99224                       0.01123                      -0.12384
                       0.99248                       0.00279                      -0.12239
                       0.99259                      -0.00170                      -0.12153
                       0.99260                      -0.00167                      -0.12143
        </DataArray>
        <DataArray type="Float32" Name="OrientationY" NumberOfComponents="3" format="ascii">
                       0.23891                      -0.96669                       0.09183
                       0.23891                      -0.96669                       0.09182
                       0.23890                      -0.96670                       0.09179
                       0.23890                      -0.96670                       0.09174
                       0.23890                      -0.96671                       0.09168
                       0.20809                      -0.97334                       0.09649
                       0.18575                      -0.97751                       0.09985
                       0.16617                      -0.98073                       0.10273
                       0.14542                      -0.98371                       0.10572
                       0.12401                      -0.98631                       0.10873
                       0.10373                      -0.98833                       0.11153
                       0.08358                      -0.98993                       0.11424
                       0.06530                      -0.99103                       0.11664
                       0.05145                      -0.99163                       0.11841
                       0.03781                      -0.99204                       0.12013
                       0.02640                      -0.99223                       0.12154
                       0.01791                      -0.99230                       0.12258
                       0.01338                      -0.99230                       0.12314
                       0.01339                      -0.99230                       0.12314
        </DataArray>
        <DataArray type="Float32" Name="OrientationZ" NumberOfComponents="3" format="ascii">
                      -0.13008                      -0.12558                      -0.98352
                      -0.13003                      -0.12556                      -0.98353
                      -0.12990                      -0.12549                      -0.98355
                      -0.12970                      -0.12540                      -0.98359
                      -0.12938                      -0.12526                      -0.98365
                      -0.12892                      -0.12508                      -0.98374
                      -0.12836                      -0.12489                      -0.98383
                      -0.12774                      -0.12471                      -0.98394
                      -0.12705                      -0.12453                      -0.98405
                      -0.12630                      -0.12438                      -0.98416
                      -0.12550                      -0.12424                      -0.98428
                      -0.12465                      -0.12412                      -0.98441
                      -0.12379                      -0.12403                      -0.98453
                      -0.12293                      -0.12395                      -0.98464
                      -0.12212                      -0.12390                      -0.98475
                      -0.12151                      -0.12387                      -0.98483
                      -0.12111                      -0.12385                      -0.98488
                      -0.12080                      -0.12385                      -0.98492
                      -0.12070                      -0.12385                      -0.98493
        </DataArray>
        <DataArray type="Float32" Name="Force" NumberOfComponents="3" format="ascii">
                      57.70792                      -2.24924                      -7.34503
                      50.93777                      -3.56536                      -6.27932
                      57.14945                      -6.16963                      -6.75998
                      44.05747                      -6.24263                      -5.01259
                     283.00393                      96.69269                     -49.57070
                     263.53719                      75.91120                     -44.22812
                     263.36589                      69.37257                     -43.21981
                     226.93022                      52.66280                     -36.18549
                     198.58969                      37.97884                     -30.48931
                     190.30273                      32.13829                     -28.52570
                     171.74688                      21.69758                     -24.66865
                     162.30468                      17.12814                     -22.73963
                     136.16797                      10.28366                     -18.43428
                     126.23262                       7.78835                     -16.75445
                     115.82694                       5.44658                     -15.05935
                     106.99057                       3.74068                     -13.67916
                      96.89423                       2.55332                     -12.24150
                      66.06722                       1.46493                      -8.29080
                      65.91898                       1.41458                      -8.25889
        </DataArray>
        <DataArray type="Float32" Name="Moment" NumberOfComponents="3" format="ascii">
                       0.00000                       0.00000                       0.00000
                       0.00000                       0.00000                       0.00000
                       0.00000                       0.00000                       0.00000
                       0.00000                       0.00000                       0.00000
                      30.03351                      29.15218                     228.32849
                      30.93009                      30.13270                     236.01816
                      28.61214                      27.99529                     219.28754
                      26.50346                      26.05969                     204.13738
                      23.46005                      23.19344                     181.69598
                      20.56129                      20.44925                     160.20900
                      16.31797                      16.33364                     127.97463
                      14.06762                      14.17712                     111.08662
                      11.83701                      12.01313                      94.13771
                       9.89997                      10.11791                      79.29240
                       8.14062                       8.37543                      65.64165
                       6.81562                       7.04724                      55.23505
                       5.50716                       5.71338                      44.78212
                       2.52406                       2.62523                      20.57741
                       2.50417                       2.60687                      20.43370
        </DataArray>
      </PointData>
      <Lines>
        <DataArray type="Int32" Name="connectivity" format="ascii">
      0      1
      1      2
      2      3
      3      4
      4      5
      5      6
      6      7
      7      8
      8      9
      9     10
     10     11
     11     12
     12     13
     13     14
     14     15
     15     16
     16     17
     17     18
        </DataArray>
        <DataArray type="Int32" Name="offsets" format="ascii">
      2
      4
      6
      8
     10
     12
     14
     16
     18
     20
     22
     24
     26
     28
     30
     32
     34
     36
        </DataArray>
      </Lines>
    </Piece>
  </PolyData>
</VTKFile>
